# Blender v2.80 (sub 75) OBJ File: 'gizmomenu.blend'
# www.blender.org
mtllib Move.mtl
o Circle
v 0.831469 0.000000 -0.555571
v 0.707106 0.000000 -0.707108
v 0.555569 0.000000 -0.831470
v 0.382682 0.000000 -0.923880
v 0.195089 0.000000 -0.980786
v 0.831469 -0.018445 -0.555571
v 0.707106 -0.018445 -0.707108
v 0.555569 -0.018445 -0.831470
v 0.382682 -0.018445 -0.923880
v 0.195089 -0.018445 -0.980786
v 0.071728 0.000000 -0.992935
v 0.071728 -0.018445 -0.992935
v 0.071728 -0.018445 -0.360604
v 0.071728 0.000000 -0.360604
v 0.071728 0.000000 -0.173168
v 0.071728 -0.018445 -0.173168
v 0.152909 -0.018445 -0.102171
v 0.152909 0.000000 -0.102171
v 0.856644 0.000000 -0.508472
v 0.856644 -0.018445 -0.508472
v 0.088190 0.000000 -0.131985
v 0.088190 -0.018445 -0.131985
v 0.112244 -0.018445 -0.112244
v 0.112244 0.000000 -0.112244
v 0.130927 -0.018445 -0.089480
v 0.130927 0.000000 -0.089480
v 0.071728 0.000000 -0.140784
v 0.071728 -0.018445 -0.140784
v 0.455712 -0.000000 -0.599625
v 0.455712 -0.018445 -0.599625
v 0.458293 -0.000000 -0.559199
v 0.458293 -0.018445 -0.559199
v 0.455820 -0.000000 -0.551523
v 0.455820 -0.018445 -0.551523
v 0.458241 -0.000000 -0.592308
v 0.458241 -0.018445 -0.592308
v 0.452270 -0.000000 -0.606393
v 0.452270 -0.018445 -0.606393
v 0.452439 -0.000000 -0.544467
v 0.452439 -0.018445 -0.544467
v 0.448200 -0.000000 -0.538076
v 0.448200 -0.018445 -0.538076
v 0.442863 -0.000000 -0.618074
v 0.442863 -0.018445 -0.618074
v 0.447968 -0.000000 -0.612560
v 0.447968 -0.018445 -0.612560
v 0.443149 -0.000000 -0.532394
v 0.443149 -0.018445 -0.532394
v 0.430804 -0.000000 -0.523332
v 0.430804 -0.018445 -0.523332
v 0.437335 -0.000000 -0.527464
v 0.437335 -0.018445 -0.527464
v 0.437010 -0.000000 -0.622883
v 0.437010 -0.018445 -0.622883
v 0.437168 -0.000000 -0.575981
v 0.437168 -0.018445 -0.575981
v 0.423050 -0.000000 -0.543551
v 0.423050 -0.018445 -0.543551
v 0.423606 -0.000000 -0.520041
v 0.423606 -0.018445 -0.520041
v 0.426191 -0.000000 -0.603375
v 0.426191 -0.018445 -0.603375
v 0.418389 -0.000000 -0.609183
v 0.418389 -0.018445 -0.609183
v 0.423284 -0.000000 -0.630176
v 0.423284 -0.018445 -0.630176
v 0.435856 -0.000000 -0.586498
v 0.435856 -0.018445 -0.586498
v 0.434448 -0.000000 -0.559322
v 0.434448 -0.018445 -0.559322
v 0.436858 -0.000000 -0.570009
v 0.436858 -0.018445 -0.570009
v 0.415787 -0.000000 -0.517636
v 0.415787 -0.018445 -0.517636
v 0.414403 -0.000000 -0.538793
v 0.414403 -0.018445 -0.538793
v 0.422509 -0.000000 -0.606527
v 0.422509 -0.018445 -0.606527
v 0.429402 -0.000000 -0.599762
v 0.429402 -0.018445 -0.599762
v 0.432105 -0.000000 -0.595722
v 0.432105 -0.018445 -0.595721
v 0.430465 -0.000000 -0.626934
v 0.430465 -0.018445 -0.626934
v 0.435945 -0.000000 -0.564449
v 0.435945 -0.018445 -0.564449
v 0.432388 -0.000000 -0.554648
v 0.432388 -0.018445 -0.554648
v 0.429788 -0.000000 -0.550448
v 0.429788 -0.018445 -0.550448
v 0.415522 -0.000000 -0.632556
v 0.415522 -0.018445 -0.632556
v 0.421446 0.000000 -0.630740
v 0.421446 -0.018445 -0.630740
v 0.418955 -0.000000 -0.540894
v 0.418955 -0.018445 -0.540894
v 0.413866 -0.000000 -0.611309
v 0.413866 -0.018445 -0.611309
v 0.434268 -0.000000 -0.591289
v 0.434268 -0.018445 -0.591289
v 0.436834 -0.000000 -0.581384
v 0.436834 -0.018445 -0.581384
v 0.426668 -0.000000 -0.546743
v 0.426668 -0.018445 -0.546743
v 0.398225 -0.000000 -0.614161
v 0.398225 -0.018445 -0.614161
v 0.403750 -0.000000 -0.613832
v 0.403750 -0.018445 -0.613832
v 0.404017 -0.000000 -0.536335
v 0.404017 -0.018445 -0.536335
v 0.393007 -0.018445 -0.613833
v 0.393007 0.000000 -0.613833
v 0.388067 -0.018445 -0.612872
v 0.388067 0.000000 -0.612872
v 0.389914 -0.000000 -0.516180
v 0.389914 -0.018445 -0.516179
v 0.407396 -0.000000 -0.516160
v 0.407396 -0.018445 -0.516160
v 0.407236 -0.018445 -0.634023
v 0.407236 0.000000 -0.634023
v 0.409417 -0.000000 -0.537266
v 0.409417 -0.018445 -0.537266
v 0.398225 -0.000000 -0.536021
v 0.398225 -0.018445 -0.536021
v 0.383438 -0.018445 -0.611313
v 0.383438 0.000000 -0.611313
v 0.387891 -0.000000 -0.537320
v 0.387891 -0.018445 -0.537320
v 0.392900 -0.000000 -0.536350
v 0.392900 -0.018445 -0.536350
v 0.390128 -0.018445 -0.634003
v 0.390128 0.000000 -0.634003
v 0.381815 -0.000000 -0.517706
v 0.381815 -0.018445 -0.517706
v 0.409412 0.000000 -0.612731
v 0.408975 -0.000000 -0.612870
v 0.408975 -0.018445 -0.612870
v 0.409412 -0.018445 -0.612731
v 0.398479 -0.000000 -0.515658
v 0.398479 -0.018445 -0.515658
v 0.398479 -0.018445 -0.634523
v 0.398479 0.000000 -0.634523
v 0.382168 -0.018445 -0.632486
v 0.382168 0.000000 -0.632486
v 0.374665 -0.018445 -0.630033
v 0.374665 0.000000 -0.630033
v 0.371563 -0.000000 -0.547061
v 0.371563 -0.018445 -0.547061
v 0.360848 -0.000000 -0.527773
v 0.360848 -0.018445 -0.527773
v 0.367229 -0.000000 -0.523558
v 0.367229 -0.018445 -0.523558
v 0.368705 -0.018445 -0.599812
v 0.368705 0.000000 -0.599812
v 0.367682 -0.018445 -0.626708
v 0.367682 0.000000 -0.626708
v 0.375032 -0.000000 -0.543802
v 0.375032 -0.018445 -0.543802
v 0.383224 -0.000000 -0.538904
v 0.383224 -0.018445 -0.538904
v 0.371754 -0.018445 -0.603407
v 0.371754 0.000000 -0.603407
v 0.366136 -0.018445 -0.595797
v 0.366136 0.000000 -0.595797
v 0.378928 -0.000000 -0.541073
v 0.378928 -0.018445 -0.541073
v 0.375248 -0.018445 -0.606546
v 0.375248 0.000000 -0.606545
v 0.379154 -0.018445 -0.609193
v 0.379154 0.000000 -0.609193
v 0.368551 -0.000000 -0.550824
v 0.368551 -0.018445 -0.550824
v 0.366022 -0.000000 -0.555063
v 0.366022 -0.018445 -0.555063
v 0.368313 0.000000 -0.551221
v 0.368313 -0.018445 -0.551221
v 0.361281 -0.018445 -0.622574
v 0.361281 0.000000 -0.622574
v 0.374236 -0.000000 -0.520184
v 0.374236 -0.018445 -0.520184
v 0.361636 -0.018445 -0.581581
v 0.361636 0.000000 -0.581581
v 0.355528 -0.018445 -0.617692
v 0.355528 0.000000 -0.617692
v 0.340185 -0.018445 -0.559553
v 0.340185 0.000000 -0.559553
v 0.361318 -0.018445 -0.576236
v 0.361318 0.000000 -0.576236
v 0.342642 -0.018445 -0.551952
v 0.342642 0.000000 -0.551952
v 0.342786 -0.018445 -0.599195
v 0.342786 0.000000 -0.599195
v 0.362532 -0.000000 -0.564861
v 0.362532 -0.018445 -0.564861
v 0.361627 -0.018445 -0.570365
v 0.361627 0.000000 -0.570365
v 0.364007 -0.000000 -0.559751
v 0.364007 -0.018445 -0.559751
v 0.364078 -0.018445 -0.591396
v 0.364078 0.000000 -0.591396
v 0.346216 -0.018445 -0.605940
v 0.346216 0.000000 -0.605940
v 0.350485 -0.018445 -0.612127
v 0.350485 0.000000 -0.612127
v 0.355677 0.000000 -0.532310
v 0.355146 -0.000000 -0.532775
v 0.355146 -0.018445 -0.532775
v 0.355677 -0.018445 -0.532310
v 0.345990 -0.000000 -0.544920
v 0.345990 -0.018445 -0.544920
v 0.362567 -0.018445 -0.586646
v 0.362567 0.000000 -0.586646
v 0.350176 -0.000000 -0.538509
v 0.350176 -0.018445 -0.538509
v 0.340256 -0.018445 -0.591954
v 0.340256 0.000000 -0.591954
v 0.173731 -0.018445 -0.653103
v 0.173731 -0.000000 -0.653103
v 0.285724 -0.018445 -0.517949
v 0.285724 0.000000 -0.517949
v 0.287505 -0.018445 -0.691537
v 0.285333 -0.018445 -0.688858
v 0.287505 0.000000 -0.691537
v 0.285333 0.000000 -0.688858
v 0.285724 -0.018445 -0.653103
v 0.285724 0.000000 -0.653103
v 0.229727 -0.000000 -0.620269
v 0.229727 -0.018445 -0.620269
v 0.338692 -0.018445 -0.584280
v 0.338692 0.000000 -0.584280
v 0.338156 -0.018445 -0.576236
v 0.338156 0.000000 -0.576236
v 0.310667 -0.018445 -0.691537
v 0.310667 0.000000 -0.691537
v 0.174240 -0.018445 -0.653103
v 0.174240 -0.000000 -0.653103
v 0.285214 -0.018445 -0.653103
v 0.285214 0.000000 -0.653103
v 0.148787 -0.018445 -0.691537
v 0.148787 -0.000000 -0.691537
v 0.227691 -0.000000 -0.585908
v 0.227691 -0.018445 -0.585908
v 0.310667 -0.018445 -0.517949
v 0.310667 0.000000 -0.517949
v 0.173731 -0.000000 -0.517949
v 0.173731 -0.018445 -0.517949
v 0.148787 -0.018445 -0.517949
v 0.148787 -0.000000 -0.517949
v 0.172204 -0.018445 -0.691537
v 0.172204 -0.000000 -0.691537
v 0.338672 -0.018445 -0.567665
v 0.338672 0.000000 -0.567665
v 0.254561 -0.018445 -0.614568
v 0.254561 0.000000 -0.614568
v 0.231764 -0.000000 -0.585908
v 0.231764 -0.018445 -0.585908
v 0.525743 -0.000000 -0.561982
v 0.525743 -0.018445 -0.561982
v 0.459798 -0.000000 -0.584494
v 0.459798 -0.018445 -0.584494
v 0.591823 -0.000000 -0.568664
v 0.591823 -0.018445 -0.568664
v 0.555778 -0.000000 -0.632232
v 0.555778 -0.018445 -0.632232
v 0.593047 -0.000000 -0.561026
v 0.593047 -0.018445 -0.561026
v 0.459813 -0.000000 -0.567452
v 0.459813 -0.018445 -0.567451
v 0.470256 -0.000000 -0.632232
v 0.470256 -0.018445 -0.632232
v 0.529561 0.000000 -0.515658
v 0.529561 -0.018445 -0.515658
v 0.595325 -0.000000 -0.600162
v 0.595325 -0.018445 -0.600162
v 0.593179 0.000000 -0.592809
v 0.593333 0.000000 -0.593334
v 0.593179 -0.018445 -0.592809
v 0.593333 -0.018445 -0.593334
v 0.540150 0.000000 -0.540151
v 0.540150 -0.018445 -0.540151
v 0.579958 -0.000000 -0.632232
v 0.579958 -0.018445 -0.632232
v 0.494946 -0.000000 -0.632232
v 0.494946 -0.018445 -0.632232
v 0.460330 -0.000000 -0.576236
v 0.460330 -0.018445 -0.576236
v 0.591412 -0.000000 -0.576491
v 0.591412 -0.018445 -0.576491
v 0.592512 0.000000 -0.588809
v 0.592393 -0.018445 -0.588093
v 0.591861 0.000000 -0.584904
v 0.591861 -0.018445 -0.584904
v 0.521926 0.000000 -0.515658
v 0.521926 -0.018445 -0.515658
v 0.595071 -0.000000 -0.553671
v 0.595071 -0.018445 -0.553671
v 0.520000 0.000000 -0.520002
v 0.520000 -0.018445 -0.520002
v 0.601457 -0.000000 -0.540183
v 0.601457 -0.018445 -0.540183
v 0.615491 -0.000000 -0.591024
v 0.615491 -0.018445 -0.591024
v 0.620748 -0.000000 -0.552678
v 0.620748 -0.018445 -0.552678
v 0.614574 -0.000000 -0.586672
v 0.614574 -0.018445 -0.586672
v 0.597879 -0.000000 -0.546692
v 0.597879 -0.018445 -0.546692
v 0.605793 -0.000000 -0.534239
v 0.605793 -0.018445 -0.534239
v 0.598256 -0.000000 -0.606921
v 0.598256 -0.018445 -0.606921
v 0.616714 -0.000000 -0.595039
v 0.616714 -0.018445 -0.595039
v 0.618495 -0.000000 -0.556729
v 0.618495 -0.018445 -0.556729
v 0.616978 -0.000000 -0.627170
v 0.616978 -0.018445 -0.627170
v 0.601929 -0.000000 -0.613044
v 0.601929 -0.018445 -0.613044
v 0.606302 -0.000000 -0.618488
v 0.606302 -0.018445 -0.618488
v 0.615152 -0.000000 -0.566220
v 0.615152 -0.018445 -0.566220
v 0.618241 -0.000000 -0.598710
v 0.618241 -0.018445 -0.598710
v 0.616629 -0.000000 -0.561244
v 0.616629 -0.018445 -0.561244
v 0.610870 -0.000000 -0.528952
v 0.610870 -0.018445 -0.528952
v 0.620070 -0.000000 -0.602028
v 0.620070 -0.018445 -0.602028
v 0.616676 -0.000000 -0.524416
v 0.616676 -0.018445 -0.524416
v 0.611332 -0.000000 -0.623211
v 0.611332 -0.018445 -0.623211
v 0.614065 -0.000000 -0.571654
v 0.614065 -0.018445 -0.571654
v 0.629813 -0.000000 -0.543336
v 0.629813 -0.018445 -0.543336
v 0.623196 -0.000000 -0.630323
v 0.623196 -0.018445 -0.630323
v 0.629944 -0.000000 -0.632628
v 0.629944 -0.018445 -0.632628
v 0.630373 -0.000000 -0.611615
v 0.630373 -0.018445 -0.611615
v 0.630416 -0.000000 -0.517973
v 0.630416 -0.018445 -0.517973
v 0.633597 -0.000000 -0.541168
v 0.633597 -0.018445 -0.541168
v 0.624628 -0.000000 -0.607575
v 0.624628 -0.018445 -0.607575
v 0.627353 -0.000000 -0.609787
v 0.627353 -0.018445 -0.609787
v 0.633687 -0.000000 -0.613051
v 0.633687 -0.018445 -0.613051
v 0.623196 -0.000000 -0.520725
v 0.623196 -0.018445 -0.520725
v 0.626409 -0.000000 -0.545979
v 0.626409 -0.018445 -0.545979
v 0.623387 -0.000000 -0.549094
v 0.623387 -0.018445 -0.549094
v 0.622199 -0.000000 -0.604986
v 0.622199 -0.018445 -0.604986
v 0.633278 0.000000 -0.633280
v 0.637293 -0.000000 -0.614087
v 0.637293 -0.018445 -0.614087
v 0.638322 -0.000000 -0.516253
v 0.638322 -0.018445 -0.516253
v 0.637181 0.000000 -0.634042
v 0.637181 -0.018445 -0.634042
v 0.633278 -0.018445 -0.633280
v 0.637760 -0.000000 -0.539477
v 0.637760 -0.018445 -0.539477
v 0.652202 -0.000000 -0.634093
v 0.652202 -0.018445 -0.634093
v 0.645372 -0.000000 -0.614924
v 0.645372 -0.018445 -0.614924
v 0.647212 -0.000000 -0.537537
v 0.647212 -0.018445 -0.537537
v 0.652498 -0.000000 -0.537293
v 0.652498 -0.018445 -0.537293
v 0.641188 -0.000000 -0.614714
v 0.641188 -0.018445 -0.614714
v 0.659258 -0.000000 -0.611446
v 0.659258 -0.018445 -0.611446
v 0.662680 -0.000000 -0.538224
v 0.662680 -0.018445 -0.538224
v 0.649251 -0.000000 -0.614699
v 0.649251 -0.018445 -0.614699
v 0.652866 -0.000000 -0.614033
v 0.652866 -0.018445 -0.614033
v 0.662013 -0.000000 -0.609555
v 0.662013 -0.018445 -0.609555
v 0.651596 -0.000000 -0.515749
v 0.651596 -0.018445 -0.515749
v 0.644863 -0.000000 -0.634523
v 0.644863 -0.018445 -0.634523
v 0.642299 -0.000000 -0.538265
v 0.642299 -0.018445 -0.538265
v 0.655919 -0.000000 -0.537398
v 0.655919 -0.018445 -0.537398
v 0.646899 -0.000000 -0.515658
v 0.646899 -0.018445 -0.515658
v 0.659056 -0.000000 -0.632800
v 0.659056 -0.018445 -0.632800
v 0.656036 -0.000000 -0.516021
v 0.656036 -0.018445 -0.516021
v 0.656205 -0.000000 -0.612944
v 0.656205 -0.018445 -0.612944
v 0.660246 -0.000000 -0.516478
v 0.660246 -0.018445 -0.516478
v 0.659312 -0.000000 -0.537710
v 0.659312 -0.018445 -0.537710
v 0.669854 -0.000000 -0.598388
v 0.669854 -0.018445 -0.598388
v 0.670966 -0.000000 -0.594774
v 0.670966 -0.018445 -0.594774
v 0.668392 -0.000000 -0.601689
v 0.668392 -0.018445 -0.601689
v 0.671192 -0.000000 -0.627613
v 0.671192 -0.018445 -0.627613
v 0.669355 -0.000000 -0.539834
v 0.669355 -0.018445 -0.539834
v 0.676416 -0.000000 -0.623711
v 0.676416 -0.018445 -0.623711
v 0.672670 -0.000000 -0.540920
v 0.672670 -0.018445 -0.540920
v 0.675974 -0.000000 -0.542187
v 0.675974 -0.018445 -0.542187
v 0.668089 -0.000000 -0.517949
v 0.668089 -0.018445 -0.517949
v 0.666591 -0.000000 -0.604661
v 0.666591 -0.018445 -0.604661
v 0.664254 -0.000000 -0.517120
v 0.664254 -0.018445 -0.517120
v 0.665396 -0.000000 -0.630641
v 0.665396 -0.018445 -0.630641
v 0.672097 -0.000000 -0.586672
v 0.672097 -0.018445 -0.586672
v 0.666026 -0.000000 -0.538934
v 0.666026 -0.018445 -0.538934
v 0.671779 -0.000000 -0.518967
v 0.671779 -0.018445 -0.518967
v 0.664461 -0.000000 -0.607288
v 0.664461 -0.018445 -0.607288
v 0.671717 -0.000000 -0.590863
v 0.671717 -0.018445 -0.590863
v 0.675352 -0.000000 -0.520177
v 0.675352 -0.018445 -0.520177
v 0.688359 -0.000000 -0.606732
v 0.688359 -0.018445 -0.606732
v 0.682565 -0.000000 -0.545239
v 0.682565 -0.018445 -0.545239
v 0.678837 -0.000000 -0.521578
v 0.678837 -0.018445 -0.521578
v 0.685858 -0.000000 -0.547015
v 0.685858 -0.018445 -0.547015
v 0.682262 -0.000000 -0.523175
v 0.682262 -0.018445 -0.523175
v 0.681037 -0.000000 -0.618933
v 0.681037 -0.018445 -0.618933
v 0.685028 -0.000000 -0.613275
v 0.685028 -0.018445 -0.613275
v 0.679271 -0.000000 -0.543628
v 0.679271 -0.018445 -0.543628
v 0.685656 -0.000000 -0.524967
v 0.685656 -0.018445 -0.524967
v 0.691000 -0.000000 -0.599303
v 0.691000 -0.018445 -0.599303
v 0.689045 -0.000000 -0.526958
v 0.689045 -0.018445 -0.526958
v 0.689155 -0.000000 -0.548949
v 0.689155 -0.018445 -0.548949
v 0.692922 -0.000000 -0.590982
v 0.693396 -0.018445 -0.587265
v 0.692922 -0.018445 -0.590982
v 0.694097 -0.000000 -0.581767
v 0.694097 -0.018445 -0.581767
v 0.692459 -0.000000 -0.529148
v 0.692459 -0.018445 -0.529148
v 0.692459 -0.000000 -0.551038
v 0.692459 -0.018445 -0.551038
v 0.694496 -0.000000 -0.571654
v 0.694496 -0.018445 -0.571654
vt 0.000000 0.000000
vt 0.000000 0.000000
vt 0.000000 0.000000
vt 0.000000 0.000000
vt 0.000000 0.000000
vt 0.000000 0.000000
vt 0.000000 0.000000
vt 0.000000 0.000000
vt 0.000000 0.000000
vt 0.000000 0.000000
vt 0.000000 0.000000
vt 0.000000 0.000000
vt 0.000000 0.000000
vt 0.000000 0.000000
vt 0.000000 0.000000
vt 0.000000 0.000000
vt 0.000000 0.000000
vt 0.000000 0.000000
vt 0.000000 0.000000
vt 0.000000 0.000000
vt 0.000000 0.000000
vt 0.000000 0.000000
vt 0.000000 0.000000
vt 0.000000 0.000000
vt 0.000000 0.000000
vt 0.000000 0.000000
vt 0.000000 0.000000
vt 0.000000 0.000000
vt 0.000000 0.000000
vt 0.000000 0.000000
vt 0.000000 0.000000
vt 0.000000 0.000000
vt 0.000000 0.000000
vt 0.000000 0.000000
vt 0.000000 0.000000
vt 0.000000 0.000000
vt 0.000000 0.000000
vt 0.000000 0.000000
vt 0.000000 0.000000
vt 0.000000 0.000000
vt 0.000000 0.000000
vt 0.000000 0.000000
vt 0.000000 0.000000
vt 0.000000 0.000000
vt 0.000000 0.000000
vt 0.000000 0.000000
vt 0.000000 0.000000
vt 0.000000 0.000000
vt 0.000000 0.000000
vt 0.000000 0.000000
vt 0.000000 0.000000
vt 0.000000 0.000000
vt 0.000000 0.000000
vt 0.000000 0.000000
vt 0.000000 0.000000
vt 0.000000 0.000000
vt 0.000000 0.000000
vt 0.000000 0.000000
vt 0.000000 0.000000
vt 0.000000 0.000000
vt 0.000000 0.000000
vt 0.000000 0.000000
vt 0.000000 0.000000
vt 0.000000 0.000000
vt 0.000000 0.000000
vt 0.000000 0.000000
vt 0.000000 0.000000
vt 0.000000 0.000000
vt 0.000000 0.000000
vt 0.000000 0.000000
vt 0.000000 0.000000
vt 0.000000 0.000000
vt 0.000000 0.000000
vt 0.000000 0.000000
vt 0.000000 0.000000
vt 0.000000 0.000000
vt 0.000000 0.000000
vt 0.000000 0.000000
vt 0.000000 0.000000
vt 0.000000 0.000000
vt 0.000000 0.000000
vt 0.000000 0.000000
vt 0.000000 0.000000
vt 0.000000 0.000000
vt 0.000000 0.000000
vt 0.000000 0.000000
vt 0.000000 0.000000
vt 0.000000 0.000000
vt 0.000000 0.000000
vt 0.000000 0.000000
vt 0.000000 0.000000
vt 0.000000 0.000000
vt 0.000000 0.000000
vt 0.000000 0.000000
vt 0.000000 0.000000
vt 0.000000 0.000000
vt 0.000000 0.000000
vt 0.000000 0.000000
vt 0.000000 0.000000
vt 0.000000 0.000000
vt 0.000000 0.000000
vt 0.000000 0.000000
vt 0.000000 0.000000
vt 0.000000 0.000000
vt 0.000000 0.000000
vt 0.000000 0.000000
vt 0.000000 0.000000
vt 0.000000 0.000000
vt 0.000000 0.000000
vt 0.000000 0.000000
vt 0.000000 0.000000
vt 0.000000 0.000000
vt 0.000000 0.000000
vt 0.000000 0.000000
vt 0.000000 0.000000
vt 0.000000 0.000000
vt 0.000000 0.000000
vt 0.000000 0.000000
vt 0.000000 0.000000
vt 0.000000 0.000000
vt 0.000000 0.000000
vt 0.000000 0.000000
vt 0.000000 0.000000
vt 0.000000 0.000000
vt 0.000000 0.000000
vt 0.000000 0.000000
vt 0.000000 0.000000
vt 0.000000 0.000000
vt 0.000000 0.000000
vt 0.000000 0.000000
vt 0.000000 0.000000
vt 0.000000 0.000000
vt 0.000000 0.000000
vt 0.000000 0.000000
vt 0.000000 0.000000
vt 0.000000 0.000000
vt 0.000000 0.000000
vt 0.000000 0.000000
vt 0.000000 0.000000
vt 0.000000 0.000000
vt 0.000000 0.000000
vt 0.000000 0.000000
vt 0.000000 0.000000
vt 0.000000 0.000000
vt 0.000000 0.000000
vt 0.000000 0.000000
vt 0.000000 0.000000
vt 0.000000 0.000000
vt 0.000000 0.000000
vt 0.000000 0.000000
vt 0.000000 0.000000
vt 0.000000 0.000000
vt 0.000000 0.000000
vt 0.000000 0.000000
vt 0.000000 0.000000
vt 0.000000 0.000000
vt 0.000000 0.000000
vt 0.000000 0.000000
vt 0.000000 0.000000
vt 0.000000 0.000000
vt 0.000000 0.000000
vt 0.000000 0.000000
vt 0.000000 0.000000
vt 0.000000 0.000000
vt 0.000000 0.000000
vt 0.000000 0.000000
vt 0.000000 0.000000
vt 0.000000 0.000000
vt 0.000000 0.000000
vt 0.000000 0.000000
vt 0.000000 0.000000
vt 0.000000 0.000000
vt 0.000000 0.000000
vt 0.000000 0.000000
vt 0.000000 0.000000
vt 0.000000 0.000000
vt 0.000000 0.000000
vt 0.000000 0.000000
vt 0.000000 0.000000
vt 0.000000 0.000000
vt 0.000000 0.000000
vt 0.000000 0.000000
vt 0.000000 0.000000
vt 0.000000 0.000000
vt 0.000000 0.000000
vt 0.000000 0.000000
vt 0.000000 0.000000
vt 0.000000 0.000000
vt 0.000000 0.000000
vt 0.000000 0.000000
vt 0.000000 0.000000
vt 0.000000 0.000000
vt 0.000000 0.000000
vt 0.000000 0.000000
vt 0.000000 0.000000
vt 0.000000 0.000000
vt 0.000000 0.000000
vt 0.000000 0.000000
vt 0.000000 0.000000
vt 0.000000 0.000000
vt 0.000000 0.000000
vt 0.000000 0.000000
vt 0.000000 0.000000
vt 0.000000 0.000000
vt 0.000000 0.000000
vt 0.000000 0.000000
vt 0.000000 0.000000
vt 0.000000 0.000000
vt 0.000000 0.000000
vt 0.000000 0.000000
vt 0.000000 0.000000
vt 0.000000 0.000000
vt 0.000000 0.000000
vt 0.000000 0.000000
vt 0.000000 0.000000
vt 0.000000 0.000000
vt 0.000000 0.000000
vt 0.000000 0.000000
vt 0.000000 0.000000
vt 0.000000 0.000000
vt 0.000000 0.000000
vt 0.000000 0.000000
vt 0.000000 0.000000
vt 0.000000 0.000000
vt 0.000000 0.000000
vt 0.000000 0.000000
vt 0.000000 0.000000
vt 0.000000 0.000000
vt 0.000000 0.000000
vt 0.000000 0.000000
vt 0.000000 0.000000
vt 0.000000 0.000000
vt 0.000000 0.000000
vt 0.000000 0.000000
vt 0.000000 0.000000
vt 0.000000 0.000000
vt 0.000000 0.000000
vt 0.000000 0.000000
vt 0.000000 0.000000
vt 0.000000 0.000000
vt 0.000000 0.000000
vt 0.000000 0.000000
vt 0.000000 0.000000
vt 0.000000 0.000000
vt 0.000000 0.000000
vt 0.000000 0.000000
vt 0.000000 0.000000
vt 0.000000 0.000000
vt 0.000000 0.000000
vt 0.000000 0.000000
vt 0.000000 0.000000
vt 0.000000 0.000000
vt 0.000000 0.000000
vt 0.000000 0.000000
vt 0.000000 0.000000
vt 0.000000 0.000000
vt 0.000000 0.000000
vt 0.000000 0.000000
vt 0.000000 0.000000
vt 0.000000 0.000000
vt 0.000000 0.000000
vt 0.000000 0.000000
vt 0.000000 0.000000
vt 0.000000 0.000000
vt 0.000000 0.000000
vt 0.000000 0.000000
vt 0.000000 0.000000
vt 0.000000 0.000000
vt 0.000000 0.000000
vt 0.000000 0.000000
vt 0.000000 0.000000
vt 0.000000 0.000000
vt 0.000000 0.000000
vt 0.000000 0.000000
vt 0.000000 0.000000
vt 0.000000 0.000000
vt 0.000000 0.000000
vt 0.000000 0.000000
vt 0.000000 0.000000
vt 0.000000 0.000000
vt 0.000000 0.000000
vt 0.000000 0.000000
vt 0.000000 0.000000
vt 0.000000 0.000000
vt 0.000000 0.000000
vt 0.000000 0.000000
vt 0.000000 0.000000
vt 0.000000 0.000000
vt 0.000000 0.000000
vt 0.000000 0.000000
vt 0.000000 0.000000
vt 0.000000 0.000000
vt 0.000000 0.000000
vt 0.000000 0.000000
vt 0.000000 0.000000
vt 0.000000 0.000000
vt 0.000000 0.000000
vt 0.000000 0.000000
vt 0.000000 0.000000
vt 0.000000 0.000000
vt 0.000000 0.000000
vt 0.000000 0.000000
vt 0.000000 0.000000
vt 0.000000 0.000000
vt 0.000000 0.000000
vt 0.000000 0.000000
vt 0.000000 0.000000
vt 0.000000 0.000000
vt 0.000000 0.000000
vt 0.000000 0.000000
vt 0.000000 0.000000
vt 0.000000 0.000000
vt 0.000000 0.000000
vt 0.000000 0.000000
vt 0.000000 0.000000
vt 0.000000 0.000000
vt 0.000000 0.000000
vt 0.000000 0.000000
vt 0.000000 0.000000
vt 0.000000 0.000000
vt 0.000000 0.000000
vt 0.000000 0.000000
vt 0.000000 0.000000
vt 0.000000 0.000000
vt 0.000000 0.000000
vt 0.000000 0.000000
vt 0.000000 0.000000
vt 0.000000 0.000000
vt 0.000000 0.000000
vt 0.000000 0.000000
vt 0.000000 0.000000
vt 0.000000 0.000000
vt 0.000000 0.000000
vt 0.000000 0.000000
vt 0.000000 0.000000
vt 0.500000 0.589800
vt 0.500000 0.528077
vt 0.498199 0.528077
vt 0.498199 0.589800
vt 0.498199 0.608097
vt 0.498200 0.611258
vt 0.500000 0.611258
vt 0.500000 0.608097
vt 0.500000 0.142913
vt 0.500000 0.140435
vt 0.498200 0.140435
vt 0.498200 0.142913
vt 0.498200 0.222233
vt 0.500000 0.222233
vt 0.875000 0.720950
vt 0.875000 0.750000
vt 0.906250 0.750000
vt 0.906250 0.720950
vt 0.845426 0.720950
vt 0.845426 0.750000
vt 0.924995 0.750000
vt 0.924995 0.720950
vt 0.000000 0.000000
vt 0.000000 0.000000
vt 0.000000 0.000000
vt 0.000000 0.000000
vt 0.000000 0.000000
vt 0.000000 0.000000
vt 0.000000 0.000000
vt 0.000000 0.000000
vt 0.000000 0.000000
vt 0.000000 0.000000
vt 0.000000 0.000000
vt 0.000000 0.000000
vt 0.000000 0.000000
vt 0.000000 0.000000
vt 0.000000 0.000000
vt 0.000000 0.000000
vt 0.000000 0.000000
vt 0.000000 0.000000
vt 0.000000 0.000000
vt 0.000000 0.000000
vt 0.000000 0.000000
vt 0.000000 0.000000
vt 0.000000 0.000000
vt 0.000000 0.000000
vt 0.000000 0.000000
vt 0.000000 0.000000
vt 0.000000 0.000000
vt 0.000000 0.000000
vt 0.000000 0.000000
vt 0.000000 0.000000
vt 0.000000 0.000000
vt 0.000000 0.000000
vt 0.000000 0.000000
vt 0.000000 0.000000
vt 0.000000 0.000000
vt 0.000000 0.000000
vt 0.000000 0.000000
vt 0.000000 0.000000
vt 0.000000 0.000000
vt 0.000000 0.000000
vt 0.000000 0.000000
vt 0.000000 0.000000
vt 0.000000 0.000000
vt 0.000000 0.000000
vt 0.000000 0.000000
vt 0.000000 0.000000
vt 0.000000 0.000000
vt 0.000000 0.000000
vt 0.000000 0.000000
vt 0.000000 0.000000
vt 0.000000 0.000000
vt 0.000000 0.000000
vt 0.000000 0.000000
vt 0.000000 0.000000
vt 0.000000 0.000000
vt 0.000000 0.000000
vt 0.000000 0.000000
vt 0.000000 0.000000
vt 0.000000 0.000000
vt 0.000000 0.000000
vt 0.000000 0.000000
vt 0.000000 0.000000
vt 0.000000 0.000000
vt 0.000000 0.000000
vt 0.000000 0.000000
vt 0.000000 0.000000
vt 0.000000 0.000000
vt 0.000000 0.000000
vt 0.000000 0.000000
vt 0.000000 0.000000
vt 0.000000 0.000000
vt 0.000000 0.000000
vt 0.000000 0.000000
vt 0.000000 0.000000
vt 0.000000 0.000000
vt 0.000000 0.000000
vt 0.000000 0.000000
vt 0.000000 0.000000
vt 0.000000 0.000000
vt 0.000000 0.000000
vt 0.000000 0.000000
vt 0.000000 0.000000
vt 0.000000 0.000000
vt 0.000000 0.000000
vt 0.000000 0.000000
vt 0.000000 0.000000
vt 0.000000 0.000000
vt 0.000000 0.000000
vt 0.000000 0.000000
vt 0.000000 0.000000
vt 0.000000 0.000000
vt 0.000000 0.000000
vt 0.000000 0.000000
vt 0.000000 0.000000
vt 0.000000 0.000000
vt 0.000000 0.000000
vt 0.000000 0.000000
vt 0.000000 0.000000
vt 0.000000 0.000000
vt 0.000000 0.000000
vt 0.000000 0.000000
vt 0.000000 0.000000
vt 0.000000 0.000000
vt 0.000000 0.000000
vt 0.000000 0.000000
vt 0.000000 0.000000
vt 0.000000 0.000000
vt 0.000000 0.000000
vt 0.000000 0.000000
vt 0.000000 0.000000
vt 0.000000 0.000000
vt 0.000000 0.000000
vt 0.000000 0.000000
vt 0.000000 0.000000
vt 0.000000 0.000000
vt 0.000000 0.000000
vt 0.000000 0.000000
vt 0.000000 0.000000
vt 0.000000 0.000000
vt 0.000000 0.000000
vt 0.000000 0.000000
vt 0.000000 0.000000
vt 0.000000 0.000000
vt 0.000000 0.000000
vt 0.000000 0.000000
vt 0.000000 0.000000
vt 0.000000 0.000000
vt 0.000000 0.000000
vt 0.000000 0.000000
vt 0.000000 0.000000
vt 0.000000 0.000000
vt 0.000000 0.000000
vt 0.000000 0.000000
vt 0.000000 0.000000
vt 0.000000 0.000000
vt 0.000000 0.000000
vt 0.000000 0.000000
vt 0.000000 0.000000
vt 0.000000 0.000000
vt 0.000000 0.000000
vt 0.000000 0.000000
vt 0.000000 0.000000
vt 0.000000 0.000000
vt 0.000000 0.000000
vt 0.000000 0.000000
vt 0.000000 0.000000
vt 0.000000 0.000000
vt 0.000000 0.000000
vt 0.000000 0.000000
vt 0.000000 0.000000
vn -0.0000 1.0000 0.0000
vn 0.0000 -1.0000 0.0000
vn 0.8819 0.0000 -0.4714
vn 0.7730 0.0000 -0.6344
vn 0.6344 0.0000 -0.7730
vn 0.4714 0.0000 -0.8819
vn 0.2903 0.0000 -0.9569
vn 0.0980 0.0000 -0.9952
vn -1.0000 -0.0000 0.0000
vn 0.5000 0.0000 0.8660
vn -0.6344 0.0000 0.7730
vn -0.7730 -0.0000 0.6344
vn -0.4714 0.0000 0.8819
vn -0.1569 0.6938 -0.7028
vn -0.1569 -0.6938 -0.7028
vn -0.2433 -0.6929 -0.6788
vn -0.2433 0.6929 -0.6788
vn 0.2675 0.6929 0.6695
vn 0.2675 -0.6929 0.6695
vn 0.1798 -0.6930 0.6981
vn 0.1798 0.6930 0.6981
vn 0.6988 0.6930 -0.1773
vn 0.6988 -0.6930 -0.1773
vn 0.7152 -0.6934 -0.0879
vn 0.7152 0.6934 -0.0879
vn -0.6645 0.6919 0.2822
vn -0.6645 -0.6919 0.2822
vn -0.6966 -0.6921 0.1888
vn -0.6966 0.6921 0.1888
vn 0.5904 0.6921 -0.4153
vn 0.5904 -0.6921 -0.4153
vn 0.5274 -0.6914 -0.4938
vn 0.5274 0.6914 -0.4938
vn 0.7109 0.6961 -0.1002
vn 0.7109 -0.6961 -0.1002
vn 0.6976 -0.6951 -0.1737
vn 0.6976 0.6951 -0.1737
vn 0.5773 0.5773 -0.5773
vn 0.5773 -0.5773 -0.5773
vn 0.5773 -0.5773 0.5773
vn 0.5773 0.5773 0.5773
vn -0.0827 0.6941 -0.7151
vn -0.0827 -0.6941 -0.7151
vn 0.0016 -0.6942 -0.7198
vn 0.0016 0.6942 -0.7198
vn -0.6992 0.6932 -0.1747
vn -0.6992 -0.6932 -0.1747
vn -0.7151 -0.6936 -0.0867
vn -0.7151 0.6936 -0.0866
vn -0.5932 0.6920 0.4114
vn -0.5932 -0.6920 0.4114
vn -0.5306 -0.6915 0.4901
vn -0.5306 0.6915 0.4901
vn -0.1703 0.7008 -0.6927
vn -0.1703 -0.7008 -0.6927
vn -0.1318 -0.7010 -0.7008
vn -0.1318 0.7010 -0.7008
vn -0.5175 0.6922 -0.5030
vn -0.5175 -0.6922 -0.5030
vn -0.5803 -0.6923 -0.4288
vn -0.5803 0.6923 -0.4288
vn -0.7152 0.6935 -0.0866
vn -0.7152 -0.6935 -0.0866
vn -0.6992 -0.6928 -0.1762
vn -0.6992 0.6928 -0.1762
vn -0.2290 0.6933 0.6833
vn -0.2290 -0.6933 0.6833
vn -0.1457 -0.6945 0.7045
vn -0.1457 0.6945 0.7045
vn -0.7192 0.6947 -0.0025
vn -0.7192 -0.6947 -0.0025
vn -0.7150 -0.6948 0.0773
vn -0.7150 0.6948 0.0773
vn 0.6953 0.5585 0.4523
vn 0.6953 -0.5585 0.4523
vn -0.4367 -0.6022 0.6683
vn -0.4367 0.6022 0.6683
vn -0.4950 0.6921 0.5252
vn -0.4950 -0.6921 0.5252
vn -0.5623 -0.6919 0.4528
vn -0.5623 0.6919 0.4528
vn -0.7022 0.6941 0.1585
vn -0.7022 -0.6941 0.1585
vn -0.6785 -0.6933 0.2427
vn -0.6785 0.6933 0.2427
vn -0.0910 0.6928 0.7153
vn -0.0910 -0.6928 0.7153
vn -0.0027 -0.6943 0.7197
vn -0.0027 0.6943 0.7197
vn 0.4298 0.6928 0.5790
vn 0.4298 -0.6928 0.5790
vn 0.3513 -0.6928 0.6297
vn 0.3513 0.6928 0.6297
vn 0.6199 0.6924 0.3692
vn 0.6199 -0.6924 0.3692
vn 0.5654 -0.6925 0.4480
vn 0.5654 0.6925 0.4480
vn 0.5300 0.6917 0.4906
vn 0.5300 -0.6917 0.4906
vn 0.4558 -0.6914 0.5605
vn 0.4558 0.6914 0.5605
vn -0.0948 -0.7014 -0.7064
vn -0.0948 0.7014 -0.7064
vn -0.3856 0.6895 0.6130
vn -0.3856 -0.6895 0.6130
vn -0.4785 -0.6895 0.5437
vn -0.4785 0.6895 0.5437
vn 0.6817 0.6945 -0.2301
vn 0.6817 -0.6945 -0.2301
vn 0.7027 -0.6950 -0.1525
vn 0.7027 0.6950 -0.1525
vn 0.6389 0.6918 0.3364
vn 0.6389 -0.6918 0.3364
vn 0.6776 -0.6926 0.2470
vn 0.6776 0.6926 0.2470
vn -0.3310 0.6922 -0.6413
vn -0.3310 -0.6922 -0.6413
vn -0.4154 -0.6919 -0.5904
vn -0.4154 0.6919 -0.5904
vn -0.4019 0.5533 0.7295
vn -0.4019 -0.5533 0.7295
vn -0.6930 -0.6134 -0.3788
vn -0.6930 0.6134 -0.3788
vn -0.6930 0.5589 0.4554
vn -0.6930 -0.5589 0.4554
vn -0.6490 -0.7071 -0.2806
vn -0.4386 -0.6019 -0.6673
vn -0.4386 0.6019 -0.6673
vn -0.6490 0.7071 -0.2806
vn -0.0602 0.7019 -0.7097
vn -0.0602 -0.7019 -0.7097
vn -0.0287 -0.7024 -0.7112
vn -0.0287 0.7024 -0.7112
vn -0.6064 0.6931 0.3897
vn -0.6064 -0.6931 0.3897
vn -0.5509 -0.6922 0.4663
vn -0.5509 0.6922 0.4663
vn 0.2718 0.6916 -0.6691
vn 0.2718 -0.6916 -0.6691
vn 0.1776 -0.6924 -0.6993
vn 0.1776 0.6924 -0.6993
vn -0.6279 0.6918 -0.3564
vn -0.6279 -0.6918 -0.3564
vn -0.5723 -0.6916 -0.4406
vn -0.5723 0.6916 -0.4406
vn -0.5773 0.5773 -0.5773
vn -0.5773 -0.5773 -0.5773
vn 0.6637 0.6923 0.2832
vn 0.6637 -0.6923 0.2832
vn -0.2850 0.6903 0.6651
vn -0.2850 -0.6903 0.6651
vn -0.6756 0.6962 -0.2427
vn -0.6756 -0.6962 -0.2427
vn -0.6941 -0.6973 -0.1784
vn -0.6941 0.6973 -0.1784
vn 0.0014 0.6937 0.7202
vn 0.0014 -0.6937 0.7202
vn -0.0880 -0.6930 0.7155
vn -0.0880 0.6930 0.7155
vn 0.7152 0.6930 -0.0901
vn 0.7152 -0.6930 -0.0901
vn 0.6980 -0.6926 -0.1816
vn 0.6980 0.6926 -0.1816
vn -0.6704 0.6922 -0.2672
vn -0.6704 -0.6922 -0.2672
vn -0.6481 0.6943 0.3129
vn -0.6481 -0.6943 0.3129
vn -0.3377 0.6217 0.7067
vn -0.3377 -0.6217 0.7067
vn -0.0009 -0.5671 0.8236
vn -0.0009 0.5671 0.8236
vn -0.5896 0.5753 -0.5669
vn -0.5896 -0.5753 -0.5669
vn -0.6366 -0.5677 -0.5219
vn -0.6366 0.5677 -0.5219
vn 0.0863 -0.6934 -0.7153
vn 0.0863 0.6934 -0.7153
vn -0.7204 0.6935 0.0020
vn -0.7204 -0.6935 0.0020
vn 0.0038 -0.5477 0.8366
vn 0.0038 0.5477 0.8366
vn 0.6682 0.6923 -0.2723
vn 0.6682 -0.6923 -0.2723
vn 0.6257 -0.6921 -0.3598
vn 0.6257 0.6921 -0.3598
vn 0.4352 0.6025 -0.6690
vn 0.4352 -0.6025 -0.6690
vn 0.6464 -0.7071 -0.2865
vn 0.6464 0.7071 -0.2865
vn 0.4512 0.6911 -0.5647
vn 0.4512 -0.6911 -0.5647
vn 0.3645 -0.6911 -0.6240
vn 0.3645 0.6911 -0.6240
vn 0.5762 0.6921 -0.4346
vn 0.5762 -0.6921 -0.4346
vn 0.6293 -0.6923 -0.3531
vn 0.6293 0.6923 -0.3531
vn -0.6624 0.6928 0.2849
vn -0.6624 -0.6928 0.2849
vn -0.6906 -0.6944 0.2018
vn -0.6906 0.6944 0.2018
vn -0.4918 -0.6922 -0.5282
vn -0.4918 0.6922 -0.5282
vn -0.6086 0.6938 -0.3849
vn -0.6086 -0.6938 -0.3849
vn -0.6478 -0.6950 -0.3121
vn -0.6478 0.6950 -0.3121
vn -0.2758 0.6923 -0.6669
vn -0.2758 -0.6923 -0.6669
vn -0.3634 -0.6921 -0.6236
vn -0.3634 0.6921 -0.6236
vn 0.6744 -0.6940 -0.2520
vn 0.6744 0.6940 -0.2520
vn 0.2575 0.6922 0.6742
vn 0.2575 -0.6922 0.6742
vn 0.3489 -0.6914 0.6326
vn 0.3489 0.6914 0.6326
vn -0.3723 -0.7027 -0.6063
vn -0.3723 0.7027 -0.6063
vn 0.4370 0.6909 0.5759
vn 0.4370 -0.6909 0.5759
vn 0.5171 -0.6908 0.5053
vn 0.5171 0.6908 0.5053
vn 0.1863 0.6921 0.6973
vn 0.1863 -0.6921 0.6973
vn 0.1356 -0.7071 0.6939
vn 0.0919 -0.6927 0.7153
vn 0.0919 0.6927 0.7153
vn 0.1356 0.7071 0.6939
vn 0.0808 0.6942 0.7152
vn 0.0808 -0.6942 0.7152
vn 0.1670 -0.6932 0.7011
vn 0.1670 0.6932 0.7011
vn -0.4558 0.6913 0.5607
vn -0.4558 -0.6913 0.5607
vn -0.3710 -0.6913 0.6200
vn -0.3710 0.6913 0.6200
vn -0.6425 0.6926 0.3279
vn -0.6425 -0.6926 0.3279
vn -0.6073 -0.7071 0.3622
vn -0.6073 0.7071 0.3622
vn -0.5574 -0.6901 0.4615
vn -0.5574 0.6901 0.4615
vn 0.0901 -0.6932 0.7151
vn 0.0901 0.6932 0.7151
vn 0.0018 -0.6939 0.7200
vn 0.0018 0.6939 0.7200
vn 0.6392 0.6930 -0.3334
vn 0.6392 -0.6930 -0.3334
vn 0.6052 0.5727 0.5528
vn 0.6052 -0.5727 0.5528
vn 0.7150 0.6948 0.0770
vn 0.7150 -0.6948 0.0770
vn 0.7194 -0.6945 -0.0036
vn 0.7194 0.6945 -0.0036
vn -0.0055 0.6986 0.7155
vn -0.0055 -0.6986 0.7155
vn 0.0436 -0.7003 0.7125
vn 0.0436 0.7003 0.7125
vn -0.6188 0.6913 0.3731
vn -0.6188 -0.6913 0.3731
vn -0.0834 -0.6941 0.7150
vn -0.0834 0.6941 0.7150
vn 0.6507 0.6938 -0.3085
vn 0.6507 -0.6938 -0.3085
vn 0.0027 -0.6951 -0.7189
vn 0.0027 0.6951 -0.7189
vn -0.1850 0.6921 0.6976
vn -0.1850 -0.6921 0.6976
vn 0.7147 -0.6953 -0.0758
vn 0.7147 0.6953 -0.0758
vn -0.5567 -0.6928 -0.4583
vn -0.5567 0.6928 -0.4583
vn 0.6702 -0.6926 -0.2665
vn 0.6702 0.6926 -0.2665
vn 0.3078 0.6905 -0.6545
vn 0.3078 -0.6905 -0.6545
vn 0.4017 -0.6908 -0.6011
vn 0.4017 0.6908 -0.6011
vn -0.2544 0.6931 0.6744
vn -0.2544 -0.6931 0.6744
vn -0.3389 -0.6927 0.6366
vn -0.3389 0.6927 0.6366
vn -0.4198 -0.6924 0.5868
vn -0.4198 0.6924 0.5868
vn -0.4818 -0.6916 0.5380
vn -0.4818 0.6916 0.5380
vn 0.4379 0.6921 -0.5737
vn 0.4379 -0.6921 -0.5737
vn 0.4663 -0.7071 -0.5316
vn 0.5119 -0.6920 -0.5089
vn 0.5119 0.6921 -0.5089
vn 0.4663 0.7071 -0.5315
vn -0.6193 0.6919 0.3711
vn -0.6193 -0.6919 0.3711
vn 0.3562 0.6922 -0.6276
vn 0.3562 -0.6922 -0.6276
vn 0.6958 0.6922 0.1915
vn 0.6958 -0.6922 0.1915
vn -0.1686 0.6936 0.7003
vn -0.1686 -0.6936 0.7003
vn -0.2073 -0.7071 0.6760
vn -0.2073 0.7071 0.6760
vn 0.6083 0.6930 -0.3868
vn 0.6083 -0.6930 -0.3868
vn -0.7068 -0.6960 0.1264
vn -0.7068 0.6960 0.1264
vn -0.6396 0.5672 0.5188
vn -0.6396 -0.5672 0.5188
vn 0.0865 -0.7004 0.7084
vn 0.0865 0.7004 0.7084
vn -0.6716 0.6928 -0.2625
vn -0.6716 -0.6928 -0.2625
vn 0.7150 0.6947 0.0784
vn 0.7150 -0.6947 0.0784
vn 0.6974 -0.7071 0.1163
vn 0.7019 -0.6940 0.1603
vn 0.7019 0.6940 0.1603
vn 0.6974 0.7071 0.1163
vn 0.5016 -0.6926 0.5182
vn 0.5016 0.6926 0.5182
vn 0.3497 0.6924 -0.6311
vn 0.3497 -0.6924 -0.6311
vn 0.2636 -0.6927 -0.6713
vn 0.2636 0.6927 -0.6713
vn -0.0916 0.6928 -0.7152
vn -0.0916 -0.6928 -0.7152
vn -0.1844 -0.6925 -0.6974
vn -0.1844 0.6925 -0.6974
vn 0.5493 -0.7071 0.4453
vn 0.3369 -0.6219 0.7069
vn 0.3369 0.6219 0.7069
vn 0.5493 0.7071 0.4453
vn 0.4312 0.6922 -0.5787
vn 0.4312 -0.6922 -0.5787
vn -0.3467 -0.7021 -0.6220
vn -0.3467 0.7021 -0.6220
vn 0.2701 0.7019 0.6590
vn 0.2701 -0.7019 0.6590
vn 0.2990 -0.7023 0.6460
vn 0.2990 0.7023 0.6460
vn 0.1021 0.6912 -0.7154
vn 0.1021 -0.6912 -0.7154
vn 0.2062 -0.6906 -0.6932
vn 0.2062 0.6906 -0.6932
vn -0.5773 0.5773 0.5773
vn -0.5773 -0.5773 0.5773
vn -0.6960 0.6970 0.1725
vn -0.6960 -0.6970 0.1725
vn -0.6772 -0.6956 0.2398
vn -0.6772 0.6956 0.2398
vn -0.7014 -0.7071 0.0894
vn -0.7142 -0.6974 0.0595
vn -0.7142 0.6974 0.0595
vn -0.2565 0.6927 -0.6740
vn -0.2565 -0.6927 -0.6740
vn -0.1686 -0.6934 -0.7005
vn -0.1686 0.6934 -0.7006
vn 0.4400 -0.6016 0.6666
vn 0.4400 0.6016 0.6666
vn 0.5057 0.6921 -0.5151
vn 0.5057 -0.6921 -0.5151
vn -0.3438 0.6922 -0.6345
vn -0.3438 -0.6922 -0.6345
vn -0.2795 -0.6916 0.6659
vn -0.2795 0.6916 0.6659
vn -0.4276 0.6918 -0.5819
vn -0.4276 -0.6918 -0.5819
vn 0.3487 0.7031 0.6197
vn 0.3487 -0.7031 0.6197
vn 0.3698 -0.7034 0.6070
vn 0.3698 0.7034 0.6070
vn 0.7208 -0.6931 0.0023
vn 0.7208 0.6931 0.0023
vn 0.3252 -0.7027 0.6328
vn 0.3252 0.7027 0.6328
vn -0.0012 0.6936 -0.7203
vn -0.0012 -0.6936 -0.7203
vn -0.0693 0.6959 0.7148
vn -0.0693 -0.6959 0.7148
vn 0.2150 -0.7071 -0.6736
vn 0.1752 -0.6931 -0.6992
vn 0.1752 0.6931 -0.6992
vn 0.2150 0.7071 -0.6736
vn -0.3171 -0.7015 -0.6382
vn -0.3171 0.7015 -0.6382
vn 0.5711 -0.6920 -0.4415
vn 0.5711 0.6920 -0.4415
vn -0.2475 0.7008 -0.6690
vn -0.2475 -0.7008 -0.6690
vn -0.2093 -0.7007 -0.6820
vn -0.2093 0.7007 -0.6820
vn 0.7023 -0.6937 0.1596
vn 0.7023 0.6937 0.1596
vn -0.3405 0.6211 -0.7059
vn -0.3405 -0.6211 -0.7059
vn 0.3405 -0.6211 -0.7059
vn 0.3405 0.6211 -0.7059
vn 0.0867 -0.6936 -0.7151
vn 0.0867 0.6936 -0.7151
vn -0.7153 0.6925 0.0939
vn -0.7153 -0.6925 0.0939
vn -0.6319 0.6926 -0.3479
vn -0.6319 -0.6926 -0.3479
vn 0.7186 0.6954 0.0003
vn 0.7186 -0.6954 0.0003
vn -0.5047 -0.6916 -0.5166
vn -0.5047 0.6916 -0.5166
vn -0.0753 0.6950 -0.7150
vn -0.0753 -0.6950 -0.7150
vn 0.7152 -0.6923 0.0962
vn 0.7152 0.6923 0.0962
vn -0.4019 0.6917 0.6000
vn -0.4019 -0.6917 0.6000
vn -0.3159 -0.6923 0.6488
vn -0.3159 0.6923 0.6488
vn 0.1792 0.6928 -0.6985
vn 0.1792 -0.6928 -0.6985
vn 0.2692 -0.6925 -0.6693
vn 0.2692 0.6925 -0.6693
vn -0.4447 -0.6921 -0.5685
vn -0.4447 0.6921 -0.5685
vn -0.1838 -0.6915 0.6986
vn -0.1838 0.6915 0.6986
vn 0.5853 -0.6911 0.4241
vn 0.5853 0.6911 0.4241
vn 0.5922 0.6921 0.4126
vn 0.5922 -0.6921 0.4126
vn 0.4841 -0.6914 -0.5362
vn 0.4841 0.6914 -0.5362
vn 0.2807 0.6917 0.6654
vn 0.2807 -0.6917 0.6654
vn -0.2838 0.7011 -0.6541
vn -0.2838 -0.7011 -0.6541
vn 0.1671 0.7009 0.6933
vn 0.1671 -0.7009 0.6933
vn 0.2041 -0.7012 0.6830
vn 0.2041 0.7012 0.6830
vn 0.1278 -0.7007 0.7019
vn 0.1278 0.7007 0.7019
vn 0.0888 0.6932 -0.7152
vn 0.0888 -0.6932 -0.7152
vn 0.6415 0.6926 0.3297
vn 0.6415 -0.6926 0.3297
vn 0.6778 0.6933 0.2447
vn 0.6778 -0.6933 0.2448
vn 0.5531 -0.6922 -0.4636
vn 0.5531 0.6922 -0.4636
vn 0.2385 0.7016 0.6715
vn 0.2385 -0.7016 0.6715
vn 0.0179 0.6973 -0.7165
vn 0.0179 -0.6973 -0.7165
vn 0.3717 0.6914 0.6194
vn 0.3717 -0.6914 0.6194
vn -0.5534 -0.7071 -0.4402
vn -0.5534 0.7071 -0.4402
vn 0.6788 -0.7071 0.1981
vn 0.6788 0.7071 0.1981
usemtl None
s off
f 2/1/1 365/2/1 370/3/1 397/4/1 375/5/1 405/6/1 437/7/1 421/8/1 425/9/1 461/10/1 463/11/1 451/12/1 469/13/1 475/14/1 478/15/1 484/16/1 337/17/1 323/18/1 327/19/1 315/20/1 303/21/1 361/22/1 359/23/1 339/24/1 349/25/1 373/26/1 399/27/1 379/28/1 381/29/1 401/30/1 413/31/1 387/32/1 441/33/1 423/34/1 427/35/1 429/36/1 465/37/1 453/38/1 457/39/1 473/40/1 482/41/1 480/42/1 471/43/1 467/44/1 459/45/1 455/46/1 449/47/1 443/48/1 431/49/1 435/50/1 411/51/1 407/52/1 395/53/1 403/54/1 368/55/1 347/56/1 357/57/1 333/58/1 329/59/1 309/60/1 299/61/1 307/62/1 295/63/1 265/64/1 261/65/1 287/66/1 291/67/1 289/68/1 275/69/1 276/70/1 279/71/1 271/72/1 293/73/1 297/74/1 24/75/1 26/76/1 18/77/1 1/78/1
f 3/79/1 93/80/1 65/81/1 83/82/1 53/83/1 43/84/1 45/85/1 37/86/1 29/87/1 35/88/1 259/89/1 285/90/1 267/91/1 31/92/1 33/93/1 39/94/1 41/95/1 47/96/1 51/97/1 49/98/1 59/99/1 73/100/1 117/101/1 139/102/1 115/103/1 133/104/1 179/105/1 151/106/1 149/107/1 205/108/1 21/109/1 24/75/1 297/74/1 269/110/1 283/111/1 257/112/1 263/113/1 281/114/1 279/71/1 276/70/1 273/115/1 311/116/1 319/117/1 321/118/1 335/119/1 317/120/1 341/121/1 343/122/1 365/2/1 2/1/1
f 4/123/1 224/124/1 223/125/1 234/126/1 244/127/1 220/128/1 226/129/1 238/130/1 254/131/1 15/132/1 27/133/1 21/109/1 205/108/1 206/134/1 213/135/1 209/136/1 190/137/1 186/138/1 252/139/1 232/140/1 230/141/1 216/142/1 192/143/1 202/144/1 204/145/1 184/146/1 178/147/1 156/148/1 146/149/1 144/150/1 132/151/1 142/152/1 120/153/1 91/154/1 93/80/1 3/79/1
f 5/155/1 14/156/1 15/132/1 254/131/1 255/157/1 241/158/1 236/159/1 218/160/1 245/161/1 248/162/1 240/163/1 250/164/1 227/165/1 224/124/1 4/123/1
f 1/78/1 18/77/1 19/166/1
f 7/167/2 6/168/2 17/169/2 25/170/2 23/171/2 298/172/2 294/173/2 272/174/2 280/175/2 278/176/2 277/177/2 290/178/2 292/179/2 288/180/2 262/181/2 266/182/2 296/183/2 308/184/2 300/185/2 310/186/2 330/187/2 334/188/2 358/189/2 348/190/2 369/191/2 404/192/2 396/193/2 408/194/2 412/195/2 436/196/2 432/197/2 444/198/2 450/199/2 456/200/2 460/201/2 468/202/2 472/203/2 481/204/2 483/205/2 474/206/2 458/207/2 454/208/2 466/209/2 430/210/2 428/211/2 424/212/2 442/213/2 388/214/2 414/215/2 402/216/2 382/217/2 380/218/2 400/219/2 374/220/2 350/221/2 340/222/2 360/223/2 362/224/2 304/225/2 316/226/2 328/227/2 324/228/2 338/229/2 485/230/2 479/231/2 476/232/2 477/233/2 470/234/2 452/235/2 464/236/2 462/237/2 426/238/2 422/239/2 438/240/2 406/241/2 376/242/2 398/243/2 371/244/2 372/245/2
f 8/246/2 7/167/2 372/245/2 344/247/2 342/248/2 318/249/2 336/250/2 322/251/2 320/252/2 312/253/2 274/254/2 278/176/2 280/175/2 282/255/2 264/256/2 258/257/2 284/258/2 270/259/2 298/172/2 23/171/2 22/260/2 208/261/2 150/262/2 152/263/2 180/264/2 134/265/2 116/266/2 140/267/2 118/268/2 74/269/2 60/270/2 50/271/2 52/272/2 48/273/2 42/274/2 40/275/2 34/276/2 32/277/2 268/278/2 286/279/2 260/280/2 36/281/2 30/282/2 38/283/2 46/284/2 44/285/2 54/286/2 84/287/2 66/288/2 94/289/2
f 9/290/2 8/246/2 94/289/2 92/291/2 119/292/2 141/293/2 131/294/2 143/295/2 145/296/2 155/297/2 177/298/2 183/299/2 203/300/2 201/301/2 191/302/2 215/303/2 229/304/2 231/305/2 251/306/2 185/307/2 189/308/2 210/309/2 214/310/2 207/311/2 208/261/2 22/260/2 28/312/2 16/313/2 253/314/2 237/315/2 225/316/2 219/317/2 243/318/2 233/319/2 221/320/2 222/321/2
f 10/322/2 9/290/2 222/321/2 228/323/2 249/324/2 239/325/2 247/326/2 246/327/2 217/328/2 235/329/2 242/330/2 256/331/2 253/314/2 16/313/2 13/332/2
f 6/168/2 20/333/2 17/169/2
f 1/78/3 19/166/3 20/333/3 6/168/3
f 2/1/4 1/78/4 6/168/4 7/167/4
f 3/79/5 2/1/5 7/167/5 8/246/5
f 4/123/6 3/79/6 8/246/6 9/290/6
f 5/155/7 4/123/7 9/290/7 10/322/7
f 12/334/8 11/335/8 5/155/8 10/322/8
f 11/335/1 14/156/1 5/155/1
f 14/336/9 11/337/9 12/338/9 13/339/9 16/340/9 28/341/9 27/342/9 15/343/9
f 13/332/2 12/334/2 10/322/2
f 18/344/10 26/345/10 25/346/10 17/347/10 20/348/10 19/349/10
f 23/350/11 24/351/11 21/352/11 22/353/11
f 24/351/12 23/350/12 25/354/12 26/355/12
f 22/353/13 21/352/13 27/356/13 28/357/13
f 439/358/1 447/359/1 417/360/1 415/361/1 419/362/1 433/363/1 445/364/1 393/365/1 385/366/1 409/367/1 391/368/1 389/369/1 377/370/1 383/371/1 366/372/1 355/373/1 345/374/1 353/375/1 351/376/1 363/377/1 331/378/1 325/379/1 313/380/1 301/381/1 305/382/1
f 306/383/2 302/384/2 314/385/2 326/386/2 332/387/2 364/388/2 352/389/2 354/390/2 346/391/2 356/392/2 367/393/2 384/394/2 378/395/2 390/396/2 392/397/2 410/398/2 386/399/2 394/400/2 446/401/2 434/402/2 420/403/2 416/404/2 418/405/2 448/406/2 440/407/2
f 135/408/1 136/409/1 107/410/1 105/411/1 112/412/1 114/413/1 126/414/1 170/415/1 168/416/1 162/417/1 154/418/1 164/419/1 200/420/1 212/421/1 182/422/1 188/423/1 196/424/1 193/425/1 197/426/1 173/427/1 175/428/1
f 176/429/2 174/430/2 198/431/2 194/432/2 195/433/2 187/434/2 181/435/2 211/436/2 199/437/2 163/438/2 153/439/2 161/440/2 167/441/2 169/442/2 125/443/2 113/444/2 111/445/2 106/446/2 108/447/2 137/448/2 138/449/2
f 138/449/2 98/450/2 64/451/2 78/452/2 62/453/2 80/454/2 82/455/2 100/456/2 68/457/2 102/458/2 56/459/2 72/460/2 86/461/2 70/462/2 88/463/2 90/464/2 104/465/2 58/466/2 96/467/2 76/468/2 122/469/2 110/470/2 124/471/2 130/472/2 128/473/2 160/474/2 166/475/2 158/476/2 148/477/2 172/478/2 176/429/2
f 175/428/1 171/479/1 147/480/1 157/481/1 165/482/1 159/483/1 127/484/1 129/485/1 123/486/1 109/487/1 121/488/1 75/489/1 95/490/1 57/491/1 103/492/1 89/493/1 87/494/1 69/495/1 85/496/1 71/497/1 55/498/1 101/499/1 67/500/1 99/501/1 81/502/1 79/503/1 61/504/1 77/505/1 63/506/1 97/507/1 135/408/1
s 1
f 366/372/14 367/393/15 356/392/16 355/373/17
f 146/149/18 145/296/19 143/295/20 144/150/21
f 186/138/22 185/307/23 251/306/24 252/139/25
f 29/87/26 30/282/27 36/281/28 35/88/29
f 433/363/30 434/402/31 446/401/32 445/364/33
f 447/359/34 448/406/35 418/405/36 417/360/37
f 248/162/38 247/326/39 239/325/40 240/163/41
f 117/101/42 118/268/43 140/267/44 139/102/45
f 212/421/46 211/436/47 181/435/48 182/422/49
f 171/479/50 172/478/51 148/477/52 147/480/53
f 431/49/54 432/197/55 436/196/56 435/50/57
f 162/417/58 161/440/59 153/439/60 154/418/61
f 267/91/62 268/278/63 32/277/64 31/92/65
f 373/26/66 374/220/67 400/219/68 399/27/69
f 188/423/70 187/434/71 195/433/72 196/424/73
f 269/110/74 270/259/75 284/258/76 283/111/77
f 43/84/78 44/285/79 46/284/80 45/85/81
f 193/425/82 194/432/83 198/431/84 197/426/85
f 129/485/86 130/472/87 124/471/88 123/486/89
f 178/147/90 177/298/91 155/297/92 156/148/93
f 202/144/94 201/301/95 203/300/96 204/145/97
f 321/118/98 322/251/99 336/250/100 335/119/101
f 435/50/57 436/196/56 412/195/102 411/51/103
f 421/8/104 422/239/105 426/238/106 425/9/107
f 295/63/108 296/183/109 266/182/110 265/64/111
f 87/494/112 88/463/113 70/462/114 69/495/115
f 345/374/116 346/391/117 354/390/118 353/375/119
f 482/41/120 483/205/121 481/204/122 480/42/123
f 281/114/124 282/255/125 280/175/126 272/174/127 271/72/128 279/71/129
f 407/52/130 408/194/131 396/193/132 395/53/133
f 303/21/134 304/225/135 362/224/136 361/22/137
f 409/367/138 410/398/139 392/397/140 391/368/141
f 39/94/142 40/275/143 42/274/144 41/95/145
f 245/161/146 246/327/147 247/326/39 248/162/38
f 192/143/148 191/302/149 201/301/95 202/144/94
f 437/7/150 438/240/151 422/239/105 421/8/104
f 313/380/152 314/385/153 302/384/154 301/381/155
f 397/4/156 398/243/157 376/242/158 375/5/159
f 101/499/160 102/458/161 68/457/162 67/500/163
f 33/93/164 34/276/165 40/275/143 39/94/142
f 315/20/166 316/226/167 304/225/135 303/21/134
f 250/164/168 249/324/169 228/323/170 227/165/171
f 484/16/172 485/230/173 338/229/174 337/17/175
f 391/368/141 392/397/140 390/396/176 389/369/177
f 285/90/178 286/279/179 268/278/63 267/91/62
f 283/111/77 284/258/76 258/257/180 257/112/181
f 99/501/182 100/456/183 82/455/184 81/502/185
f 293/73/186 294/173/187 298/172/188 270/259/75 269/110/74 297/74/189
f 393/365/190 394/400/191 386/399/192 385/366/193
f 213/135/194 214/310/195 210/309/196 209/136/197
f 451/12/198 452/235/199 470/234/200 469/13/201
f 353/375/119 354/390/118 352/389/202 351/376/203
f 331/378/204 332/387/205 326/386/206 325/379/207
f 126/414/208 125/443/209 169/442/210 170/415/211
f 417/360/37 418/405/36 416/404/212 415/361/213
f 75/489/214 76/468/215 96/467/216 95/490/217
f 480/42/123 481/204/122 472/203/218 471/43/219
f 57/491/220 58/466/221 104/465/222 103/492/223
f 343/122/224 344/247/225 372/245/226 371/244/227 370/3/228 365/2/229
f 109/487/230 110/470/231 122/469/232 121/488/233
f 244/127/146 243/318/147 219/317/39 220/128/38
f 157/481/234 158/476/235 166/475/236 165/482/237
f 173/427/238 174/430/239 176/429/240 172/478/51 171/479/50 175/428/241
f 425/9/107 426/238/106 462/237/242 461/10/243
f 144/150/21 143/295/20 131/294/244 132/151/245
f 132/151/245 131/294/244 141/293/246 142/152/247
f 419/362/248 420/403/249 434/402/31 433/363/30
f 439/358/250 440/407/251 448/406/35 447/359/34
f 71/497/252 72/460/253 56/459/254 55/498/255
f 271/72/128 272/174/127 294/173/187 293/73/186
f 381/29/256 382/217/257 402/216/258 401/30/259
f 463/11/260 464/236/261 452/235/199 451/12/198
f 142/152/247 141/293/246 119/292/262 120/153/263
f 307/62/264 308/184/265 296/183/109 295/63/108
f 389/369/177 390/396/176 378/395/266 377/370/267
f 127/484/268 128/473/269 130/472/87 129/485/86
f 265/64/111 266/182/110 262/181/270 261/65/271
f 123/486/89 124/471/88 110/470/231 109/487/230
f 147/480/53 148/477/52 158/476/235 157/481/234
f 351/376/203 352/389/202 364/388/272 363/377/273
f 209/136/197 210/309/196 189/308/274 190/137/275
f 357/57/276 358/189/277 334/188/278 333/58/279
f 65/81/280 66/288/281 84/287/282 83/82/283
f 218/160/146 217/328/147 246/327/147 245/161/146
f 156/148/93 155/297/92 145/296/19 146/149/18
f 325/379/207 326/386/206 314/385/153 313/380/152
f 83/82/283 84/287/282 54/286/284 53/83/285
f 361/22/137 362/224/136 360/223/286 359/23/287
f 149/107/288 150/262/289 208/261/290 207/311/291 206/134/292 205/108/293
f 461/10/243 462/237/242 464/236/261 463/11/260
f 37/86/294 38/283/295 30/282/27 29/87/26
f 151/106/296 152/263/297 150/262/289 149/107/288
f 216/142/298 215/303/299 191/302/149 192/143/148
f 45/85/81 46/284/80 38/283/295 37/86/294
f 91/154/300 92/291/301 94/289/302 66/288/281 65/81/280 93/80/303
f 95/490/217 96/467/216 58/466/221 57/491/220
f 299/61/304 300/185/305 308/184/265 307/62/264
f 469/13/201 470/234/200 477/233/306 475/14/307
f 305/382/308 306/383/309 440/407/251 439/358/250
f 401/30/259 402/216/258 414/215/310 413/31/311
f 200/420/312 199/437/313 211/436/47 212/421/46
f 291/67/314 292/179/315 290/178/316 277/177/317 275/69/318 289/68/319
f 204/145/97 203/300/96 183/299/320 184/146/321
f 63/506/322 64/451/323 98/450/324 97/507/325
f 112/412/326 111/445/327 113/444/328 114/413/329
f 240/163/41 239/325/40 249/324/169 250/164/168
f 227/165/171 228/323/170 222/321/330 221/320/331 223/125/332 224/124/333
f 77/505/334 78/452/335 64/451/323 63/506/322
f 471/43/219 472/203/218 468/202/336 467/44/337
f 55/498/255 56/459/254 102/458/161 101/499/160
f 301/381/155 302/384/154 306/383/309 305/382/308
f 429/36/338 430/210/339 466/209/340 465/37/341
f 411/51/103 412/195/102 408/194/131 407/52/130
f 368/55/342 369/191/343 348/190/344 347/56/345
f 234/126/346 233/319/347 243/318/147 244/127/146
f 323/18/348 324/228/349 328/227/350 327/19/351
f 120/153/263 119/292/262 92/291/301 91/154/300
f 475/14/307 477/233/306 476/232/352 479/231/353 478/15/354
f 59/99/355 60/270/356 74/269/357 73/100/358
f 257/112/181 258/257/180 264/256/359 263/113/360
f 61/504/361 62/453/362 78/452/335 77/505/334
f 49/98/363 50/271/364 60/270/356 59/99/355
f 385/366/193 386/399/192 410/398/139 409/367/138
f 445/364/33 446/401/32 394/400/191 393/365/190
f 337/17/175 338/229/174 324/228/349 323/18/348
f 223/125/332 221/320/331 233/319/347 234/126/346
f 165/482/237 166/475/236 160/474/365 159/483/366
f 51/97/367 52/272/368 50/271/364 49/98/363
f 457/39/369 458/207/370 474/206/371 473/40/372
f 252/139/25 251/306/24 231/305/373 232/140/374
f 121/488/233 122/469/232 76/468/215 75/489/214
f 465/37/341 466/209/340 454/208/375 453/38/376
f 105/411/377 106/446/378 111/445/327 112/412/326
f 347/56/345 348/190/344 358/189/277 357/57/276
f 190/137/275 189/308/274 185/307/23 186/138/22
f 379/28/379 380/218/380 382/217/257 381/29/256
f 97/507/325 98/450/324 138/449/381 137/448/382 136/409/383 135/408/384
f 73/100/358 74/269/357 118/268/43 117/101/42
f 467/44/337 468/202/336 460/201/385 459/45/386
f 53/83/285 54/286/284 44/285/79 43/84/78
f 81/502/185 82/455/184 80/454/387 79/503/388
f 159/483/366 160/474/365 128/473/269 127/484/268
f 449/47/389 450/199/390 444/198/391 443/48/392
f 69/495/115 70/462/114 86/461/393 85/496/394
f 478/15/354 479/231/353 485/230/173 484/16/172
f 255/157/395 256/331/396 242/330/397 241/158/398
f 399/27/69 400/219/68 380/218/380 379/28/379
f 136/409/383 137/448/382 108/447/399 107/410/400
f 226/129/38 225/316/39 237/315/396 238/130/395
f 259/89/401 260/280/402 286/279/179 285/90/178
f 164/419/403 163/438/404 199/437/313 200/420/312
f 287/66/405 288/180/406 292/179/315 291/67/314
f 41/95/145 42/274/144 48/273/407 47/96/408
f 383/371/409 384/394/410 367/393/15 366/372/14
f 453/38/376 454/208/375 458/207/370 457/39/369
f 114/413/329 113/444/328 125/443/209 126/414/208
f 261/65/271 262/181/270 288/180/406 287/66/405
f 232/140/374 231/305/373 229/304/411 230/141/412
f 339/24/413 340/222/414 350/221/415 349/25/416
f 197/426/85 198/431/84 174/430/239 173/427/238
f 133/104/417 134/265/418 180/264/419 179/105/420
f 107/410/400 108/447/399 106/446/378 105/411/377
f 377/370/267 378/395/266 384/394/410 383/371/409
f 363/377/273 364/388/272 332/387/205 331/378/204
f 170/415/211 169/442/210 167/441/421 168/416/422
f 443/48/392 444/198/391 432/197/55 431/49/54
f 370/3/228 371/244/227 398/243/157 397/4/156
f 375/5/159 376/242/158 406/241/423 405/6/424
f 179/105/420 180/264/419 152/263/297 151/106/296
f 85/496/394 86/461/393 72/460/253 71/497/252
f 154/418/61 153/439/60 163/438/404 164/419/403
f 103/492/223 104/465/222 90/464/425 89/493/426
f 230/141/412 229/304/411 215/303/299 216/142/298
f 319/117/427 320/252/428 322/251/99 321/118/98
f 89/493/426 90/464/425 88/463/113 87/494/112
f 182/422/49 181/435/48 187/434/71 188/423/70
f 31/92/65 32/277/64 34/276/165 33/93/164
f 355/373/17 356/392/16 346/391/117 345/374/116
f 206/134/292 207/311/291 214/310/195 213/135/194
f 333/58/279 334/188/278 330/187/429 329/59/430
f 341/121/431 342/248/432 344/247/225 343/122/224
f 455/46/433 456/200/434 450/199/390 449/47/389
f 441/33/435 442/213/436 424/212/437 423/34/438
f 413/31/311 414/215/310 388/214/439 387/32/440
f 47/96/408 48/273/407 52/272/368 51/97/367
f 349/25/416 350/221/415 374/220/67 373/26/66
f 115/103/441 116/266/442 134/265/418 133/104/417
f 263/113/360 264/256/359 282/255/125 281/114/124
f 359/23/287 360/223/286 340/222/414 339/24/413
f 405/6/424 406/241/423 438/240/151 437/7/150
f 311/116/443 312/253/444 320/252/428 319/117/427
f 273/115/445 274/254/446 312/253/444 311/116/443
f 415/361/213 416/404/212 420/403/249 419/362/248
f 327/19/351 328/227/350 316/226/167 315/20/166
f 329/59/430 330/187/429 310/186/447 309/60/448
f 35/88/29 36/281/28 260/280/402 259/89/401
f 427/35/449 428/211/450 430/210/339 429/36/338
f 168/416/422 167/441/421 161/440/59 162/417/58
f 196/424/73 195/433/72 194/432/83 193/425/82
f 423/34/438 424/212/437 428/211/450 427/35/449
f 387/32/440 388/214/439 442/213/436 441/33/435
f 184/146/321 183/299/320 177/298/91 178/147/90
f 403/54/451 404/192/452 369/191/343 368/55/342
f 459/45/386 460/201/385 456/200/434 455/46/433
f 317/120/453 318/249/454 342/248/432 341/121/431
f 309/60/448 310/186/447 300/185/305 299/61/304
f 79/503/388 80/454/387 62/453/362 61/504/361
f 139/102/45 140/267/44 116/266/442 115/103/441
f 236/159/398 235/329/397 217/328/147 218/160/146
f 395/53/133 396/193/132 404/192/452 403/54/451
f 238/130/395 237/315/396 253/314/455 256/331/396 255/157/395 254/131/456
f 335/119/101 336/250/100 318/249/454 317/120/453
f 241/158/398 242/330/397 235/329/397 236/159/398
f 473/40/372 474/206/371 483/205/121 482/41/120
f 275/69/318 277/177/317 278/176/457 274/254/446 273/115/445 276/70/458
f 67/500/163 68/457/162 100/456/183 99/501/182
f 220/128/38 219/317/39 225/316/39 226/129/38
