# Blender v2.80 (sub 75) OBJ File: 'gizmomenu.blend'
# www.blender.org
mtllib XYZ.mtl
o Circle.002
v -0.195090 0.000000 -0.980785
v -0.382683 0.000000 -0.923880
v -0.555570 0.000000 -0.831470
v -0.195090 -0.018445 -0.980785
v -0.382683 -0.018445 -0.923880
v -0.555570 -0.018445 -0.831470
v -0.071728 -0.018445 -0.992935
v -0.071728 -0.018445 -0.360600
v -0.071728 0.000000 -0.360600
v -0.071728 0.000000 -0.992935
v -0.071728 0.000000 -0.173166
v -0.071728 -0.018445 -0.173166
v -0.088189 0.000000 -0.131986
v -0.088189 -0.018445 -0.131986
v -0.071728 -0.018445 -0.140784
v -0.071728 0.000000 -0.140784
v -0.697764 0.000000 -0.714774
v -0.697764 -0.018445 -0.714774
v -0.102901 -0.018445 -0.119912
v -0.102901 0.000000 -0.119912
v -0.102901 -0.011281 -0.119912
v -0.282405 -0.000000 -0.610345
v -0.282405 -0.018445 -0.610345
v -0.282405 -0.000000 -0.539485
v -0.282405 -0.018445 -0.539485
v -0.389578 -0.000000 -0.608775
v -0.389578 -0.018445 -0.608775
v -0.332458 -0.000000 -0.539485
v -0.332458 -0.018445 -0.539485
v -0.332066 -0.000000 -0.673354
v -0.332066 -0.018445 -0.673354
v -0.308904 -0.000000 -0.673354
v -0.308904 -0.018445 -0.673354
v -0.336188 -0.000000 -0.673354
v -0.336188 -0.018445 -0.673354
v -0.355620 -0.018445 -0.539485
v -0.355620 0.000000 -0.539485
v -0.359350 -0.000000 -0.673354
v -0.359350 -0.018445 -0.673354
v -0.401159 -0.000000 -0.622319
v -0.401159 -0.018445 -0.622319
v -0.401159 -0.018445 -0.594839
v -0.381455 -0.018445 -0.570888
v -0.381455 0.000000 -0.570888
v -0.401159 0.000000 -0.594839
v -0.466523 -0.018445 -0.673354
v -0.466523 0.000000 -0.673354
v -0.412936 -0.018445 -0.608775
v -0.412936 0.000000 -0.608775
v -0.443165 -0.018445 -0.673354
v -0.443165 0.000000 -0.673354
v -0.447287 -0.018445 -0.539485
v -0.447287 0.000000 -0.539485
v -0.470645 -0.018445 -0.539485
v -0.470645 0.000000 -0.539485
v -0.449921 -0.018445 -0.673354
v -0.449921 0.000000 -0.673354
v -0.272983 -0.000000 -0.627226
v -0.272983 -0.018445 -0.627226
v -0.263168 -0.000000 -0.610149
v -0.263168 -0.018445 -0.610149
v -0.263168 -0.000000 -0.539485
v -0.263168 -0.018445 -0.539485
v -0.264349 0.000000 -0.638194
v -0.264349 -0.018445 -0.638194
v -0.236669 0.000000 -0.673354
v -0.236670 -0.018445 -0.673354
v -0.213508 0.000000 -0.673354
v -0.213508 -0.018445 -0.673354
v -0.256335 0.000000 -0.618847
v -0.256335 -0.018445 -0.618847
v -0.125178 -0.018445 -0.656080
v -0.130503 -0.018445 -0.656080
v -0.125178 0.000000 -0.656080
v -0.130503 0.000000 -0.656080
v -0.129363 -0.018445 -0.650352
v -0.129363 0.000000 -0.650352
v -0.205067 0.000000 -0.673354
v -0.205067 -0.018445 -0.673354
v -0.205067 0.000000 -0.656080
v -0.205067 -0.018445 -0.656080
v -0.210367 0.000000 -0.539485
v -0.210367 -0.018445 -0.539485
v -0.089650 -0.018445 -0.556759
v -0.089650 0.000000 -0.556759
v -0.089650 -0.018445 -0.539485
v -0.089650 0.000000 -0.539485
v -0.107310 -0.018445 -0.539485
v -0.107310 0.000000 -0.539485
v -0.089650 -0.018445 -0.673354
v -0.089650 0.000000 -0.673354
v -0.124461 0.000000 -0.625709
v -0.133938 -0.018445 -0.673354
v -0.133938 0.000000 -0.673354
v -0.124461 -0.018445 -0.625709
v -0.174839 0.000000 -0.556759
v -0.174839 -0.018445 -0.556759
v -0.110746 -0.018445 -0.556759
v -0.110746 0.000000 -0.556759
vt 0.000000 0.000000
vt 0.000000 0.000000
vt 0.000000 0.000000
vt 0.000000 0.000000
vt 0.000000 0.000000
vt 0.000000 0.000000
vt 0.000000 0.000000
vt 0.000000 0.000000
vt 0.000000 0.000000
vt 0.000000 0.000000
vt 0.000000 0.000000
vt 0.000000 0.000000
vt 0.000000 0.000000
vt 0.000000 0.000000
vt 0.000000 0.000000
vt 0.000000 0.000000
vt 0.000000 0.000000
vt 0.000000 0.000000
vt 0.000000 0.000000
vt 0.000000 0.000000
vt 0.000000 0.000000
vt 0.000000 0.000000
vt 0.000000 0.000000
vt 0.000000 0.000000
vt 0.000000 0.000000
vt 0.000000 0.000000
vt 0.000000 0.000000
vt 0.000000 0.000000
vt 0.000000 0.000000
vt 0.000000 0.000000
vt 0.000000 0.000000
vt 0.000000 0.000000
vt 0.000000 0.000000
vt 0.000000 0.000000
vt 0.000000 0.000000
vt 0.000000 0.000000
vt 0.000000 0.000000
vt 0.000000 0.000000
vt 0.000000 0.000000
vt 0.000000 0.000000
vt 0.000000 0.000000
vt 0.000000 0.000000
vt 0.000000 0.000000
vt 0.000000 0.000000
vt 0.000000 0.000000
vt 0.000000 0.000000
vt 0.000000 0.000000
vt 0.000000 0.000000
vt 0.000000 0.000000
vt 0.000000 0.000000
vt 0.000000 0.000000
vt 0.000000 0.000000
vt 0.000000 0.000000
vt 0.000000 0.000000
vt 0.000000 0.000000
vt 0.000000 0.000000
vt 0.000000 0.000000
vt 0.000000 0.000000
vt 0.000000 0.000000
vt 0.000000 0.000000
vt 0.000000 0.000000
vt 0.000000 0.000000
vt 0.000000 0.000000
vt 0.000000 0.000000
vt 0.000000 0.000000
vt 0.000000 0.000000
vt 0.000000 0.000000
vt 0.000000 0.000000
vt 0.000000 0.000000
vt 0.000000 0.000000
vt 0.000000 0.000000
vt 0.000000 0.000000
vt 0.000000 0.000000
vt 0.000000 0.000000
vt 0.000000 0.000000
vt 0.000000 0.000000
vt 0.000000 0.000000
vt 0.000000 0.000000
vt 0.000000 0.000000
vt 0.000000 0.000000
vt 0.093750 0.720950
vt 0.093750 0.750000
vt 0.112863 0.750000
vt 0.112863 0.732233
vt 0.112863 0.720950
vt 0.075005 0.720950
vt 0.075005 0.750000
vt 0.500000 0.138742
vt 0.498199 0.138742
vt 0.498200 0.141903
vt 0.498200 0.160199
vt 0.498199 0.221923
vt 0.500000 0.221923
vt 0.500000 0.160199
vt 0.500000 0.141903
vt 0.500000 0.609621
vt 0.500000 0.527503
vt 0.498200 0.527503
vt 0.498199 0.609621
vt 0.498899 0.609621
vt 0.000000 0.000000
vt 0.000000 0.000000
vt 0.000000 0.000000
vt 0.000000 0.000000
vt 0.000000 0.000000
vt 0.000000 0.000000
vt 0.000000 0.000000
vt 0.000000 0.000000
vt 0.000000 0.000000
vt 0.000000 0.000000
vt 0.000000 0.000000
vt 0.000000 0.000000
vt 0.000000 0.000000
vt 0.000000 0.000000
vt 0.000000 0.000000
vt 0.000000 0.000000
vt 0.000000 0.000000
vt 0.000000 0.000000
vn 0.0000 1.0000 -0.0000
vn 0.0000 -1.0000 -0.0000
vn -0.0980 0.0000 -0.9952
vn -0.2903 0.0000 -0.9569
vn -0.4714 0.0000 -0.8819
vn 0.6344 0.0000 0.7730
vn 0.4714 0.0000 0.8819
vn 1.0000 0.0000 -0.0000
vn -0.7071 0.0000 0.7071
vn -0.6344 0.0000 -0.7730
vn -0.7439 0.5512 0.3778
vn -0.7439 -0.5512 0.3778
vn 0.0000 -0.7071 0.7071
vn -0.5773 -0.5773 0.5773
vn -0.5773 0.5773 0.5773
vn 0.0000 0.7071 0.7071
vn 0.3342 0.6224 -0.7077
vn 0.3342 -0.6224 -0.7077
vn 0.5460 -0.7071 -0.4492
vn 0.0026 -0.5681 -0.8229
vn 0.0026 0.5681 -0.8229
vn 0.5460 0.7071 -0.4492
vn -0.0022 0.5657 0.8246
vn -0.0022 -0.5657 0.8246
vn 0.5556 -0.7071 0.4374
vn 0.3424 -0.6207 0.7053
vn 0.3424 0.6207 0.7053
vn 0.5556 0.7071 0.4374
vn 0.0009 0.5677 0.8232
vn 0.0009 -0.5677 0.8232
vn 0.3350 -0.6223 0.7075
vn 0.3350 0.6223 0.7075
vn -0.3341 0.6225 0.7077
vn -0.3341 -0.6225 0.7077
vn 0.7513 0.5501 0.3645
vn 0.7513 -0.5501 0.3645
vn -0.3444 -0.6203 0.7047
vn -0.3444 0.6203 0.7047
vn 0.7439 0.5512 -0.3778
vn 0.7439 -0.5512 -0.3778
vn 0.0000 -0.7071 -0.7071
vn 0.5773 -0.5773 -0.5773
vn 0.5773 0.5773 -0.5773
vn 0.0000 0.7071 -0.7071
vn -0.8088 0.5880 -0.0005
vn -0.8088 -0.5880 -0.0005
vn -0.7556 -0.5495 -0.3564
vn -0.7556 0.5495 -0.3564
vn -0.7559 -0.5495 0.3558
vn -0.7559 0.5495 0.3558
vn 0.7258 0.6402 -0.2516
vn 0.7258 -0.6402 -0.2516
vn -0.7258 0.6404 -0.2510
vn -0.7258 -0.6404 -0.2510
vn -0.5773 -0.5773 -0.5773
vn -0.5773 0.5773 -0.5773
vn -0.7510 0.5502 0.3650
vn -0.7510 -0.5502 0.3650
vn -0.5560 -0.7071 -0.4368
vn -0.5560 0.7071 -0.4368
vn 0.5709 -0.7071 0.4171
vn 0.5709 0.7071 0.4171
vn -0.5709 -0.7071 -0.4171
vn -0.5709 0.7071 -0.4171
vn 0.5773 -0.5773 0.5773
vn 0.5773 0.5773 0.5773
vn -0.3318 0.6229 -0.7084
vn -0.3318 -0.6229 -0.7084
vn 0.7566 -0.5493 -0.3545
vn 0.7566 0.5493 -0.3545
vn 0.8091 0.5876 0.0007
vn 0.8091 -0.5876 0.0007
vn 0.7563 -0.5494 0.3552
vn 0.7563 0.5494 0.3552
usemtl None
s off
f 1/1/1 94/2/1 91/3/1 92/4/1 99/5/1 85/6/1 87/7/1 89/8/1 9/9/1 10/10/1
f 2/11/1 64/12/1 66/13/1 68/14/1 70/15/1 11/16/1 9/9/1 89/8/1 82/17/1 77/18/1 75/19/1 80/20/1 78/21/1 94/2/1 1/1/1
f 3/22/1 57/23/1 51/24/1 40/25/1 38/26/1 34/27/1 26/28/1 28/29/1 37/30/1 44/31/1 13/32/1 16/33/1 11/16/1 70/15/1 60/34/1 62/35/1 24/36/1 22/37/1 30/38/1 32/39/1 58/40/1 64/12/1 2/11/1
f 4/41/2 7/42/2 8/43/2 88/44/2 86/45/2 84/46/2 98/47/2 95/48/2 90/49/2 93/50/2
f 5/51/2 4/41/2 93/50/2 79/52/2 81/53/2 73/54/2 76/55/2 83/56/2 88/44/2 8/43/2 12/57/2 71/58/2 69/59/2 67/60/2 65/61/2
f 6/62/2 5/51/2 65/61/2 59/63/2 33/64/2 31/65/2 23/66/2 25/67/2 63/68/2 61/69/2 71/58/2 12/57/2 15/70/2 14/71/2 43/72/2 36/73/2 29/74/2 27/75/2 35/76/2 39/77/2 41/78/2 50/79/2 56/80/2
f 1/1/3 10/10/3 7/42/3 4/41/3
f 2/11/4 1/1/4 4/41/4 5/51/4
f 3/22/5 2/11/5 5/51/5 6/62/5
f 14/81/6 13/82/6 20/83/6 21/84/6 19/85/6
f 13/82/7 14/81/7 15/86/7 16/87/7
f 16/88/8 15/89/8 12/90/8 8/91/8 7/92/8 10/93/8 9/94/8 11/95/8
f 20/96/9 17/97/9 18/98/9 19/99/9 21/100/9
f 17/101/1 20/102/1 13/32/1 44/31/1 45/103/1 53/104/1 55/105/1 49/106/1 47/107/1 57/23/1 3/22/1
f 19/108/2 18/109/2 6/62/2 56/80/2 46/110/2 48/111/2 54/112/2 52/113/2 42/114/2 43/72/2 14/71/2
f 18/109/10 17/101/10 3/22/10 6/62/10
f 92/4/1 96/115/1 99/5/1
f 73/54/2 72/116/2 76/55/2
f 98/47/2 97/117/2 95/48/2
f 77/18/1 74/118/1 75/19/1
s 1
f 96/115/11 97/117/12 98/47/13 84/46/14 85/6/15 99/5/16
f 37/30/17 36/73/18 43/72/19 42/114/20 45/103/21 44/31/22
f 58/40/23 59/63/24 65/61/25 67/60/26 66/13/27 64/12/28
f 40/25/29 41/78/30 39/77/31 38/26/32
f 51/24/33 50/79/34 41/78/30 40/25/29
f 30/38/35 31/65/36 33/64/37 32/39/38
f 74/118/39 72/116/40 73/54/41 81/53/42 80/20/43 75/19/44
f 32/39/38 33/64/37 59/63/24 58/40/23
f 26/28/45 27/75/46 29/74/47 28/29/48
f 38/26/32 39/77/31 35/76/49 34/27/50
f 22/37/51 23/66/52 31/65/36 30/38/35
f 60/34/53 61/69/54 63/68/55 62/35/56
f 24/36/43 25/67/42 23/66/52 22/37/51
f 34/27/50 35/76/49 27/75/46 26/28/45
f 68/14/57 69/59/58 71/58/59 61/69/54 60/34/53 70/15/60
f 82/17/39 83/56/40 76/55/61 72/116/40 74/118/39 77/18/62
f 91/3/11 90/49/12 95/48/63 97/117/12 96/115/11 92/4/64
f 80/20/43 81/53/42 79/52/65 78/21/66
f 85/6/15 84/46/14 86/45/55 87/7/56
f 53/104/67 52/113/68 54/112/69 55/105/70
f 62/35/56 63/68/55 25/67/42 24/36/43
f 45/103/21 42/114/20 52/113/68 53/104/67
f 49/106/71 48/111/72 46/110/73 47/107/74
f 28/29/48 29/74/47 36/73/18 37/30/17
f 66/13/27 67/60/26 69/59/58 68/14/57
f 87/7/56 86/45/55 88/44/41 83/56/40 82/17/39 89/8/44
f 47/107/74 46/110/73 56/80/13 50/79/34 51/24/33 57/23/16
f 55/105/70 54/112/69 48/111/72 49/106/71
f 78/21/66 79/52/65 93/50/13 90/49/12 91/3/11 94/2/16
