%YAML 1.1
%TAG !u! tag:unity3d.com,2011:
--- !u!1 &761773594444039950
GameObject:
  m_ObjectHideFlags: 0
  m_CorrespondingSourceObject: {fileID: 0}
  m_PrefabInstance: {fileID: 0}
  m_PrefabAsset: {fileID: 0}
  serializedVersion: 6
  m_Component:
  - component: {fileID: 4380037424387650845}
  - component: {fileID: 8769546526177582619}
  m_Layer: 0
  m_Name: CameraAvatar
  m_TagString: Untagged
  m_Icon: {fileID: 0}
  m_NavMeshLayer: 0
  m_StaticEditorFlags: 0
  m_IsActive: 1
--- !u!4 &4380037424387650845
Transform:
  m_ObjectHideFlags: 0
  m_CorrespondingSourceObject: {fileID: 0}
  m_PrefabInstance: {fileID: 0}
  m_PrefabAsset: {fileID: 0}
  m_GameObject: {fileID: 761773594444039950}
  m_LocalRotation: {x: -0, y: -0, z: -0, w: 1}
  m_LocalPosition: {x: 0, y: 0, z: 0}
  m_LocalScale: {x: 1, y: 1, z: 1}
  m_Children:
  - {fileID: 1269580394426138094}
  m_Father: {fileID: 0}
  m_RootOrder: 0
  m_LocalEulerAnglesHint: {x: 0, y: 0, z: 0}
--- !u!114 &8769546526177582619
MonoBehaviour:
  m_ObjectHideFlags: 0
  m_CorrespondingSourceObject: {fileID: 0}
  m_PrefabInstance: {fileID: 0}
  m_PrefabAsset: {fileID: 0}
  m_GameObject: {fileID: 761773594444039950}
  m_Enabled: 1
  m_EditorHideFlags: 0
  m_Script: {fileID: 11500000, guid: b3a36918cca4e414189711a13c5bf0b9, type: 3}
  m_Name: 
  m_EditorClassIdentifier: 
--- !u!1001 &6117225759234348788
PrefabInstance:
  m_ObjectHideFlags: 0
  serializedVersion: 2
  m_Modification:
    m_TransformParent: {fileID: 4380037424387650845}
    m_Modifications:
    - target: {fileID: -927199367670048503, guid: 7f4e061e2046afb438e02e76f4d7a50a,
        type: 3}
      propertyPath: m_Name
      value: CameraAvatarModel
      objectReference: {fileID: 0}
    - target: {fileID: -4216859302048453862, guid: 7f4e061e2046afb438e02e76f4d7a50a,
        type: 3}
      propertyPath: m_LocalPosition.x
      value: 0
      objectReference: {fileID: 0}
    - target: {fileID: -4216859302048453862, guid: 7f4e061e2046afb438e02e76f4d7a50a,
        type: 3}
      propertyPath: m_LocalPosition.y
      value: 0
      objectReference: {fileID: 0}
    - target: {fileID: -4216859302048453862, guid: 7f4e061e2046afb438e02e76f4d7a50a,
        type: 3}
      propertyPath: m_LocalPosition.z
      value: 0
      objectReference: {fileID: 0}
    - target: {fileID: -4216859302048453862, guid: 7f4e061e2046afb438e02e76f4d7a50a,
        type: 3}
      propertyPath: m_LocalRotation.x
      value: 0
      objectReference: {fileID: 0}
    - target: {fileID: -4216859302048453862, guid: 7f4e061e2046afb438e02e76f4d7a50a,
        type: 3}
      propertyPath: m_LocalRotation.y
      value: 0
      objectReference: {fileID: 0}
    - target: {fileID: -4216859302048453862, guid: 7f4e061e2046afb438e02e76f4d7a50a,
        type: 3}
      propertyPath: m_LocalRotation.z
      value: 0
      objectReference: {fileID: 0}
    - target: {fileID: -4216859302048453862, guid: 7f4e061e2046afb438e02e76f4d7a50a,
        type: 3}
      propertyPath: m_LocalRotation.w
      value: 1
      objectReference: {fileID: 0}
    - target: {fileID: -4216859302048453862, guid: 7f4e061e2046afb438e02e76f4d7a50a,
        type: 3}
      propertyPath: m_RootOrder
      value: 0
      objectReference: {fileID: 0}
    - target: {fileID: -4216859302048453862, guid: 7f4e061e2046afb438e02e76f4d7a50a,
        type: 3}
      propertyPath: m_LocalEulerAnglesHint.x
      value: 0
      objectReference: {fileID: 0}
    - target: {fileID: -4216859302048453862, guid: 7f4e061e2046afb438e02e76f4d7a50a,
        type: 3}
      propertyPath: m_LocalEulerAnglesHint.y
      value: 0
      objectReference: {fileID: 0}
    - target: {fileID: -4216859302048453862, guid: 7f4e061e2046afb438e02e76f4d7a50a,
        type: 3}
      propertyPath: m_LocalEulerAnglesHint.z
      value: 0
      objectReference: {fileID: 0}
    m_RemovedComponents: []
  m_SourcePrefab: {fileID: 100100000, guid: 7f4e061e2046afb438e02e76f4d7a50a, type: 3}
--- !u!4 &1269580394426138094 stripped
Transform:
  m_CorrespondingSourceObject: {fileID: -4216859302048453862, guid: 7f4e061e2046afb438e02e76f4d7a50a,
    type: 3}
  m_PrefabInstance: {fileID: 6117225759234348788}
  m_PrefabAsset: {fileID: 0}
